{
    "_id": "BsZ6o2YrwVovKfNh",
    "data": {
        "attributes": {
            "ac": {
                "value": 10
            },
            "hardness": 0,
            "hasHealth": false,
            "hp": {
                "details": "",
                "max": 0,
                "temp": 0,
                "tempmax": 0,
                "value": 0
            },
            "stealth": {
                "details": "or <i>detect magic</i>",
                "value": 0
            }
        },
        "creatureType": "",
        "details": {
            "description": "<p>A roiling red orb, forged from a drop of the god Rovagug's blood, rains fire from the sky when a specified condition is met.</p>",
            "disable": "<p>Thievery DC 48 (legendary) to imbue thieves' tools with aspects representing Asmodeus and Sarenrae and use them to drain away the orb's power over 10 minutes; the character attempting this check takes 5 fire damage each round until the orb is depleted</p>",
            "isComplex": false,
            "level": {
                "value": 23
            },
            "reset": "",
            "routine": ""
        },
        "saves": {
            "fortitude": {
                "saveDetail": "",
                "value": 0
            },
            "reflex": {
                "saveDetail": "",
                "value": 0
            },
            "will": {
                "saveDetail": "",
                "value": 0
            }
        },
        "source": {
            "value": "Pathfinder Core Rulebook"
        },
        "statusEffects": [],
        "traits": {
            "ci": [],
            "di": {
                "custom": "",
                "selected": {},
                "value": []
            },
            "dr": [],
            "dv": [],
            "rarity": "rare",
            "size": {
                "value": "med"
            },
            "traits": {
                "custom": "",
                "value": [
                    "magical"
                ]
            }
        }
    },
    "img": "systems/pf2e/icons/default-icons/hazard.svg",
    "items": [
        {
            "_id": "KaYeYfefttO5X9OF",
            "data": {
                "actionCategory": {
                    "value": ""
                },
                "actionType": {
                    "value": "reaction"
                },
                "actions": {
                    "value": null
                },
                "description": {
                    "value": "<p><strong>Trigger</strong> A special condition set by the trap's creator occurs; this is typically the event of their death.</p>\n<p><strong>Effect</strong> Fire rains from the sky in a 100-mile radius, dealing [[/r {10d6}[fire]]]{10d6 fire damage} to creatures and objects in the area. Each creature or object can attempt a @Check[type:reflex|dc:46|basic:true] save. Any creature reduced to 0 Hit Points by this damage dies instantly. This is not enough damage to completely burn away a forest or level an entire mountain or city, but it typically kills most creatures in the area.</p>"
                },
                "requirements": {
                    "value": ""
                },
                "rules": [],
                "slug": null,
                "source": {
                    "value": ""
                },
                "traits": {
                    "custom": "",
                    "rarity": "common",
                    "value": [
                        "death",
                        "divine",
                        "evocation",
                        "fire"
                    ]
                },
                "trigger": {
                    "value": ""
                },
                "weapon": {
                    "value": ""
                }
            },
            "img": "systems/pf2e/icons/actions/Reaction.webp",
            "name": "Burn It All",
            "sort": 100000,
            "type": "action"
        }
    ],
    "name": "Armageddon Orb",
    "token": {
        "disposition": 0,
        "height": 1,
        "img": "systems/pf2e/icons/default-icons/hazard.svg",
        "name": "Armageddon Orb",
        "width": 1
    },
    "type": "hazard"
}
