{
    "_id": "C4KgMYzmyWVpe721",
    "content": "<p>You lose [[/r 1d10*100 #XP]]{1d10*100 XP} unless you choose to draw two more cards.</p>",
    "flags": {},
    "name": "Fool",
    "permission": {
        "default": 0
    }
}
