{
    "_id": "f9vNVQ2v45mDI8Xr",
    "data": {
        "baseItem": null,
        "containerId": null,
        "description": {
            "value": "<p>This aeon stone must be activated to provide a benefit.</p>\n<hr />\n<p><strong>Activate</strong> <span class=\"pf2-icon\">R</span> envision</p>\n<p><strong>Trigger</strong> An enemy fails its save against a mental spell you cast using one of your spell slots</p>\n<p><strong>Effect</strong> You gain temporary Hit Points equal to twice the spell's level until your next turn.</p>\n<p>The resonant power grants a separate activation.</p>\n<hr />\n<p><strong>Activate</strong> <span class=\"pf2-icon\">2</span> command, Interact</p>\n<p><strong>Frequency</strong> once per day</p>\n<p><strong>Effect</strong> You gain the effect of a <em>@Compendium[pf2e.spells-srd.Chill Touch]{Chill Touch}</em> arcane cantrip.</p>"
        },
        "equippedBulk": {
            "value": ""
        },
        "hardness": 0,
        "hp": {
            "brokenThreshold": 0,
            "max": 0,
            "value": 0
        },
        "level": {
            "value": 4
        },
        "negateBulk": {
            "value": "0"
        },
        "preciousMaterial": {
            "value": ""
        },
        "preciousMaterialGrade": {
            "value": ""
        },
        "price": {
            "value": {
                "gp": 85
            }
        },
        "quantity": 1,
        "rules": [],
        "size": "med",
        "source": {
            "value": "Pathfinder Core Rulebook"
        },
        "stackGroup": null,
        "traits": {
            "custom": "",
            "rarity": "uncommon",
            "value": [
                "invested",
                "magical",
                "transmutation"
            ]
        },
        "usage": {
            "value": "worn"
        },
        "weight": {
            "value": "-"
        }
    },
    "img": "systems/pf2e/icons/equipment/worn-items/other-worn-items/aeon-stone-azure-briolette.webp",
    "name": "Aeon Stone (Azure Briolette)",
    "type": "equipment"
}
