{
    "_id": "kJSB09q2KTAcWZy9",
    "data": {
        "baseItem": null,
        "containerId": "null",
        "description": {
            "value": "<p>This beautiful leather bag is lined in soft fur and purrs quietly when pet.</p>\n<hr />\n<p><strong>Activate</strong> <span class=\"pf2-icon\">2</span> Interact</p>\n<p><strong>Frequency</strong> once per day</p>\n<p><strong>Effect</strong> You shake the bag to produce a single cat. You cast a 3rd-level <em>@Compendium[pf2e.spells-srd.Summon Animal]{Summon Animal}</em> to produce a @Compendium[pf2e.pathfinder-bestiary.Leopard]{Leopard}.</p>\n<hr />\n<p><strong>Activate</strong> <span class=\"pf2-icon\">2</span> envision, Interact</p>\n<p><strong>Frequency</strong> once per day</p>\n<p><strong>Effect</strong> You pull the bag over your head and it covers you completely. You then exit the bag in the form of a large cat. You gain the effects of 3rd-level <em>@Compendium[pf2e.spells-srd.Animal Form]{Animal Form}</em> but must use the cat battle form.</p>"
        },
        "equippedBulk": {
            "value": ""
        },
        "hardness": 0,
        "hp": {
            "brokenThreshold": 0,
            "max": 0,
            "value": 0
        },
        "level": {
            "value": 8
        },
        "negateBulk": {
            "value": "0"
        },
        "preciousMaterial": {
            "value": null
        },
        "preciousMaterialGrade": {
            "value": null
        },
        "price": {
            "value": {
                "gp": 500
            }
        },
        "quantity": 1,
        "rules": [],
        "size": "med",
        "source": {
            "value": "Pathfinder #170: Spoken on the Song Wind"
        },
        "stackGroup": null,
        "traits": {
            "custom": "",
            "rarity": "uncommon",
            "value": [
                "conjuration",
                "magical",
                "transmutation"
            ]
        },
        "usage": {
            "value": "held-in-one-hand"
        },
        "weight": {
            "value": "1"
        }
    },
    "img": "systems/pf2e/icons/default-icons/equipment.svg",
    "name": "Bag of Cats",
    "type": "equipment"
}
