{
    "_id": "Xnhp7g1UOPVPZx7u",
    "data": {
        "baseItem": null,
        "containerId": "null",
        "description": {
            "value": "<p>This finely cut garnet brooch fills your mind with vigor and occasional bursts of mental clarity. While wearing the brooch, you gain a +1 item bonus to checks to Recall Knowledge with Lore skills.</p>\n<hr />\n<p><strong>Activate</strong> <span class=\"pf2-icon\">2</span> envision (fortune)</p>\n<p><strong>Frequency</strong> once per day</p>\n<p><strong>Effect</strong> You think hard on a topic and receive a sudden inspiration. You attempt to Recall Knowledge using Lore. On this check, you roll twice and take the higher result.</p>"
        },
        "equippedBulk": {
            "value": ""
        },
        "hardness": 0,
        "hp": {
            "brokenThreshold": 0,
            "max": 0,
            "value": 0
        },
        "level": {
            "value": 8
        },
        "negateBulk": {
            "value": "0"
        },
        "preciousMaterial": {
            "value": null
        },
        "preciousMaterialGrade": {
            "value": null
        },
        "price": {
            "value": {
                "gp": 425
            }
        },
        "quantity": 1,
        "rules": [
            {
                "key": "FlatModifier",
                "predicate": {
                    "all": [
                        "action:recall-knowledge"
                    ]
                },
                "selector": "lore-skill-check",
                "type": "item",
                "value": 1
            }
        ],
        "size": "med",
        "source": {
            "value": "Pathfinder Lost Omens: The Grand Bazaar"
        },
        "stackGroup": null,
        "traits": {
            "custom": "",
            "rarity": "uncommon",
            "value": [
                "divine",
                "invested",
                "magical"
            ]
        },
        "usage": {
            "value": "worn"
        },
        "weight": {
            "value": "-"
        }
    },
    "img": "systems/pf2e/icons/default-icons/equipment.svg",
    "name": "Brooch of Inspiration",
    "type": "equipment"
}
