{
    "_id": "qO1swPrA14AnuyBD",
    "data": {
        "baseItem": null,
        "containerId": "null",
        "description": {
            "value": "<p>A female figure peers through her blindfold from the cover of this stately tome.</p>\n<hr />\n<p><strong>Activate</strong> <span class=\"pf2-icon\">f</span> envision</p>\n<p><strong>Frequency</strong> once per day</p>\n<p><strong>Requirements</strong> Your last action was to cast a divination spell prepared from this grimoire</p>\n<p><strong>Effect</strong> The grimoire offers you a glimpse into the truth of things. Seek or Recall Knowledge.</p>\n<p>@Compendium[pf2e.equipment-effects.Effect: Greater Codex of Unimpeded Sight]{Effect: Codex of Unimpeded Sight}</p>"
        },
        "equippedBulk": {
            "value": ""
        },
        "hardness": 0,
        "hp": {
            "brokenThreshold": 0,
            "max": 0,
            "value": 0
        },
        "level": {
            "value": 6
        },
        "negateBulk": {
            "value": "0"
        },
        "preciousMaterial": {
            "value": null
        },
        "preciousMaterialGrade": {
            "value": null
        },
        "price": {
            "value": {
                "gp": 215
            }
        },
        "quantity": 1,
        "rules": [],
        "size": "med",
        "source": {
            "value": "Pathfinder Secrets of Magic"
        },
        "stackGroup": "",
        "traits": {
            "custom": "",
            "rarity": "common",
            "value": [
                "divination",
                "grimoire",
                "magical"
            ]
        },
        "usage": {
            "value": "held-in-one-hand"
        },
        "weight": {
            "value": "L"
        }
    },
    "img": "systems/pf2e/icons/equipment/held-items/codex-of-unimpreded-sight.webp",
    "name": "Codex of Unimpeded Sight",
    "type": "equipment"
}
