{
    "_id": "5Q5MfHX43Sjm8C6Z",
    "data": {
        "baseItem": null,
        "containerId": "null",
        "description": {
            "value": "<p>A Large or smaller restrained or willing creature can be executed by a final blade.</p>\n<hr />\n<p><strong>Activate</strong> 1 minute (Interact)</p>\n<p><strong>Effect</strong> You execute a creature restrained beneath the blade. The creature you execute takes [[/r {11d10}[slashing]]]{11d10 slashing damage} and must succeed at a @Check[type:fortitude|dc:45|name:Avoid Decapitation] save or be decapitated as though it suffered a critical hit with a natural 20 from a <em>+3 major striking vorpal scythe</em>. The soul of a creature executed with a final blade is trapped, and the creature can't be returned to life, not even by miracle or similar magic. A final blade can hold any number of souls in this way, and a sufficient number of captured souls forms a monster called a gray death.</p>\n<p><strong>Destruction</strong> A final blade can be destroyed via the rare ritual, blunt the final blade.</p>"
        },
        "equippedBulk": {
            "value": ""
        },
        "hardness": 0,
        "hp": {
            "brokenThreshold": 0,
            "max": 0,
            "value": 0
        },
        "level": {
            "value": 20
        },
        "negateBulk": {
            "value": "0"
        },
        "preciousMaterial": {
            "value": null
        },
        "preciousMaterialGrade": {
            "value": null
        },
        "price": {
            "value": {}
        },
        "quantity": 1,
        "rules": [],
        "size": "med",
        "source": {
            "value": "Pathfinder Adventure: Night of the Gray Death"
        },
        "stackGroup": null,
        "traits": {
            "custom": "",
            "rarity": "rare",
            "value": [
                "artifact",
                "death",
                "evil",
                "necromancy",
                "occult"
            ]
        },
        "usage": {
            "value": "held-in-one-hand"
        },
        "weight": {
            "value": "40"
        }
    },
    "img": "systems/pf2e/icons/default-icons/equipment.svg",
    "name": "Final Blade",
    "type": "equipment"
}
