{
    "_id": "VpoBYfVUEA8wtQAb",
    "data": {
        "baseItem": null,
        "containerId": "null",
        "description": {
            "value": "<p>This is a metal drinking flask, 4 inches in diameter and 10 inches tall. Its screw top is covered by four simple metal cups that nest together.</p>\n<hr />\n<p><strong>Activate</strong> Make an Impression</p>\n<p><strong>Effect</strong> If you share drinks from a flask of fellowship as part of your Make an Impression action, the drink that pours from the flask happens to be exactly what the target of your efforts would most like to have a dram or two of-wine, spirits, hot ginger tea, or ice cold water with lemon, for example. You gain a +1 item bonus on your Diplomacy check.</p>\n<p>The GM can disallow the flask's use if it doesn't make sense in the moment for you to pull out a flask and start pouring, if drinks are inappropriate for the occasion, or if your target is absolutely not interested in sharing a drink with you. Drinks from the flask of fellowship are entirely social; they won't intoxicate anyone, nor alleviate serious thirst.</p>\n<p>@Compendium[pf2e.equipment-effects.Effect: Flask of Fellowship]{Effect: Flask of Fellowship}</p>"
        },
        "equippedBulk": {
            "value": ""
        },
        "hardness": 0,
        "hp": {
            "brokenThreshold": 0,
            "max": 0,
            "value": 0
        },
        "level": {
            "value": 2
        },
        "negateBulk": {
            "value": "0"
        },
        "preciousMaterial": {
            "value": null
        },
        "preciousMaterialGrade": {
            "value": null
        },
        "price": {
            "value": {
                "gp": 25
            }
        },
        "quantity": 1,
        "rules": [],
        "size": "med",
        "source": {
            "value": "Pathfinder Secrets of Magic"
        },
        "stackGroup": "",
        "traits": {
            "custom": "",
            "rarity": "common",
            "value": [
                "conjuration",
                "magical"
            ]
        },
        "usage": {
            "value": "held-in-two-hands"
        },
        "weight": {
            "value": "L"
        }
    },
    "img": "systems/pf2e/icons/equipment/held-items/flask-of-fellowship.webp",
    "name": "Flask of Fellowship",
    "type": "equipment"
}
