{
    "_id": "3nv4JcajPAxDgGMb",
    "data": {
        "baseItem": null,
        "containerId": null,
        "description": {
            "value": "<p>This timeworn chalice is constructed of dull tin. It has an unassuming appearance save for the gold, silver, and ebony rings that encircle its rim.</p>\n<p><strong>Activate</strong> <span class=\"pf2-icon\">A</span> envision</p>\n<p><strong>Frequency</strong> three times per day</p>\n<p><strong>Effect</strong> The chalice fills with one of three different wines of your choosing, as described below. The wine looks, tastes, and smells the same regardless of which type you choose, and <em>@Compendium[pf2e.spells-srd.Detect Magic]{Detect Magic}</em> has no effect on the liquid beyond indicating that it is magical.</p>\n<ul>\n<li>Ordinary wine.</li>\n<li>Wine that, when imbibed, casts a 2nd-level <em>@Compendium[pf2e.spells-srd.Restoration]{Restoration}</em> spell on the drinker.</li>\n<li>Wine that, when imbibed, casts a 4th-level <em>@Compendium[pf2e.spells-srd.Nightmare]{Nightmare}</em> spell on the drinker.</li>\n</ul>\n<p>If you aren't chaotic, the first time each day you activate the chalice, there is a one-in-six chance that the liquid you conjure is a different type (the GM should roll 1d6 as a secret roll) instead. The second and third times you activate the chalice in the same day, the odds of this happening increase to two-in-six or three-in-six, respectively. If you are chaotic, the chalice always works as intended.</p>"
        },
        "equippedBulk": {
            "value": ""
        },
        "hardness": 0,
        "hp": {
            "brokenThreshold": 0,
            "max": 0,
            "value": 0
        },
        "level": {
            "value": 10
        },
        "negateBulk": {
            "value": ""
        },
        "preciousMaterial": {
            "value": ""
        },
        "preciousMaterialGrade": {
            "value": ""
        },
        "price": {
            "value": {
                "gp": 850
            }
        },
        "quantity": 1,
        "rules": [],
        "size": "med",
        "source": {
            "value": "Pathfinder #152: Legacy of the Lost God"
        },
        "stackGroup": null,
        "traits": {
            "custom": "",
            "rarity": "unique",
            "value": [
                "conjuration",
                "illusion",
                "magical"
            ]
        },
        "usage": {
            "value": "held-in-one-hand"
        },
        "weight": {
            "value": "L"
        }
    },
    "img": "systems/pf2e/icons/equipment/held-items/grail-of-twisted-desires.webp",
    "name": "Grail of Twisted Desires",
    "type": "equipment"
}
