{
    "_id": "J5MqY1P3JWrezcQX",
    "data": {
        "baseItem": null,
        "containerId": null,
        "description": {
            "value": "<p>This sprig of berry-festooned holly and mistletoe doesn't wilt or rot. It can be used as a primal focus, and it also grants the creature holding it a +1 item bonus to Nature checks.</p>\n<p><strong>Activate</strong> <span class=\"pf2-icon\">D</span> Interact</p>\n<p><strong>Frequency</strong> once per 10 minutes</p>\n<p><strong>Effect</strong> You squeeze juice from one of the berries and smear it onto a non-magical club or staff to cast <em>@Compendium[pf2e.spells-srd.Shillelagh]{Shillelagh}</em> upon it.</p>\n<p><strong>Activate</strong> <span class=\"pf2-icon\">D</span> Interact</p>\n<p><strong>Frequency</strong> once per day</p>\n<p><strong>Effect</strong> You can twine the sprig around the wrist of one hand and touch a tree to cast <em>@Compendium[pf2e.spells-srd.Tree Shape]{Tree Shape}</em> upon yourself, except instead of a becoming a tree, you become a vine on the touched tree.</p>"
        },
        "equippedBulk": {
            "value": ""
        },
        "hardness": 0,
        "hp": {
            "brokenThreshold": 0,
            "max": 0,
            "value": 0
        },
        "level": {
            "value": 6
        },
        "negateBulk": {
            "value": "0"
        },
        "preciousMaterial": {
            "value": ""
        },
        "preciousMaterialGrade": {
            "value": ""
        },
        "price": {
            "value": {
                "gp": 230
            }
        },
        "quantity": 1,
        "rules": [
            {
                "key": "FlatModifier",
                "selector": "nature",
                "type": "item",
                "value": 1
            }
        ],
        "size": "med",
        "source": {
            "value": "Pathfinder Core Rulebook"
        },
        "stackGroup": null,
        "traits": {
            "custom": "",
            "rarity": "common",
            "value": [
                "primal",
                "transmutation"
            ]
        },
        "usage": {
            "value": "held-in-one-hand"
        },
        "weight": {
            "value": "-"
        }
    },
    "img": "systems/pf2e/icons/equipment/held-items/primeval-mistletoe.webp",
    "name": "Primeval Mistletoe",
    "type": "equipment"
}
