{
    "_id": "E63MaprijBuUK9Om",
    "data": {
        "MAP": {
            "value": ""
        },
        "baseItem": "staff",
        "bonus": {
            "value": 0
        },
        "bonusDamage": {
            "value": 0
        },
        "category": "simple",
        "containerId": null,
        "damage": {
            "damageType": "bludgeoning",
            "dice": 1,
            "die": "d4",
            "value": ""
        },
        "description": {
            "value": "<p>Semiprecious gemstones emerge, seemingly at random, from the surface of this gnarled wooden staff. While wielding it, you gain a +2 circumstance bonus to checks to identify divination magic.</p>\n<p><strong>Activate</strong> Cast a Spell</p>\n<p><strong>Effect</strong> You expend a number of charges from the staff to cast a spell from its list.</p>\n<ul>\n<li><strong>Cantrip</strong> <em>@Compendium[pf2e.spells-srd.Detect Magic]{Detect Magic}</em></li>\n<li><strong>1st</strong> <em>@Compendium[pf2e.spells-srd.True Strike]{True Strike}</em></li>\n<li><strong>2nd</strong> <em>@Compendium[pf2e.spells-srd.Comprehend Language]{Comprehend Language}</em>, <em>@Compendium[pf2e.spells-srd.Darkvision]{Darkvision}</em>, <em>@Compendium[pf2e.spells-srd.See Invisibility]{See Invisibility}</em></li>\n<li><strong>3rd</strong> <em>@Compendium[pf2e.spells-srd.Clairaudience]{Clairaudience}</em>, <em>@Compendium[pf2e.spells-srd.Darkvision]{Darkvision}</em></li>\n<li><strong>4th</strong> <em>@Compendium[pf2e.spells-srd.Clairvoyance]{Clairvoyance}</em>, <em>@Compendium[pf2e.spells-srd.Comprehend Language]{Comprehend Language}</em>, <em>@Compendium[pf2e.spells-srd.Telepathy]{Telepathy}</em></li>\n</ul>\n<p><strong>Craft Requirements</strong> Supply one casting of all listed levels of all listed spells.</p>"
        },
        "equippedBulk": {
            "value": ""
        },
        "group": "club",
        "hardness": 0,
        "hp": {
            "brokenThreshold": 0,
            "max": 0,
            "value": 0
        },
        "level": {
            "value": 10
        },
        "negateBulk": {
            "value": "0"
        },
        "potencyRune": {
            "value": null
        },
        "preciousMaterial": {
            "value": ""
        },
        "preciousMaterialGrade": {
            "value": ""
        },
        "price": {
            "value": {
                "gp": 900
            }
        },
        "property1": {
            "critDamage": "",
            "critDamageType": "",
            "critDice": null,
            "critDie": "",
            "criticalConditionType": "",
            "criticalConditionValue": null,
            "damageType": "",
            "dice": null,
            "die": "",
            "strikeConditionType": "",
            "strikeConditionValue": null,
            "value": ""
        },
        "propertyRune1": {
            "value": ""
        },
        "propertyRune2": {
            "value": ""
        },
        "propertyRune3": {
            "value": ""
        },
        "propertyRune4": {
            "value": ""
        },
        "quantity": 1,
        "range": null,
        "reload": {
            "value": ""
        },
        "rules": [
            {
                "key": "FlatModifier",
                "label": "Staff of Divination (identify divination magic)",
                "predicate": {
                    "all": [
                        "action:identify-magic",
                        "divination"
                    ]
                },
                "selector": "skill-check",
                "type": "circumstance",
                "value": 2
            }
        ],
        "size": "med",
        "source": {
            "value": "Pathfinder Core Rulebook"
        },
        "splashDamage": {
            "value": 0
        },
        "stackGroup": null,
        "strikingRune": {
            "value": ""
        },
        "traits": {
            "custom": "",
            "rarity": "common",
            "value": [
                "divination",
                "magical",
                "staff",
                "two-hand-d8"
            ]
        },
        "usage": {
            "value": "held-in-one-hand"
        },
        "weight": {
            "value": "1"
        }
    },
    "img": "systems/pf2e/icons/equipment/staves/staff-of-divination.webp",
    "name": "Staff of Divination (Greater)",
    "type": "weapon"
}
