{
    "_id": "JN2wkB9JG4nklVKP",
    "data": {
        "baseItem": null,
        "containerId": null,
        "description": {
            "value": "<p>This greasy stick emits a stomach-churning scent when held in a hand.</p>\n<hr />\n<p><strong>Activate</strong> @Compendium[pf2e.actionspf2e.Cast a Spell]{Cast a Spell}</p>\n<p><strong>Frequency</strong> once per day, plus overcharge</p>\n<p><strong>Effect</strong> You cast <em>@Compendium[pf2e.spells-srd.Acid Arrow]{Acid Arrow}</em> at 2nd level. A creature that takes acid damage from this spell must succeed at a Fortitude save against your spell DC or become @Compendium[pf2e.conditionitems.Sickened]{Sickened 1}.</p>\n<hr />\n<p><strong>Craft Requirements</strong> Supply a casting of Acid Arrow at 2nd level</p>"
        },
        "equippedBulk": {
            "value": ""
        },
        "hardness": 0,
        "hp": {
            "brokenThreshold": 0,
            "max": 0,
            "value": 0
        },
        "level": {
            "value": 6
        },
        "negateBulk": {
            "value": "0"
        },
        "preciousMaterial": {
            "value": ""
        },
        "preciousMaterialGrade": {
            "value": ""
        },
        "price": {
            "value": {
                "gp": 250
            }
        },
        "quantity": 1,
        "rules": [],
        "size": "med",
        "source": {
            "value": "Pathfinder Adventure: The Slithering"
        },
        "stackGroup": null,
        "traits": {
            "custom": "",
            "rarity": "uncommon",
            "value": [
                "acid",
                "evocation",
                "magical",
                "wand"
            ]
        },
        "usage": {
            "value": "held-in-one-hand"
        },
        "weight": {
            "value": "L"
        }
    },
    "img": "systems/pf2e/icons/equipment/wands/specialty-wands/wand-of-noisome-acid.webp",
    "name": "Wand of Noisome Acid (2nd-Level Spell)",
    "type": "equipment"
}
