{
    "_id": "CjfBdn0fOIarWzBc",
    "data": {
        "baseItem": null,
        "containerId": null,
        "description": {
            "value": "<p>This polished black wand has a green gem at the tip, and anyone who looks into it sees a reflection of a grinning skull instead of their face.</p>\n<p><strong>Activate</strong> Cast a Spell</p>\n<p><strong>Frequency</strong> Once per day, plus overcharge</p>\n<p><strong>Effect</strong> You cast <em>@Compendium[pf2e.spells-srd.Finger of Death]{Finger of Death}</em> at 7th level.</p>\n<p>If the spell slays its target, the corpse releases negative energy in a @Template[type:emanation|distance:20], dealing negative damage equal to double the spell's level ([[/r {14}[negative]]]{14 negative damage}).</p>\n<hr />\n<p><strong>Craft Requirements</strong> Supply a casting of finger of death of the appropriate level.</p>"
        },
        "equippedBulk": {
            "value": ""
        },
        "hardness": 0,
        "hp": {
            "brokenThreshold": 0,
            "max": 0,
            "value": 0
        },
        "level": {
            "value": 16
        },
        "negateBulk": {
            "value": "0"
        },
        "preciousMaterial": {
            "value": ""
        },
        "preciousMaterialGrade": {
            "value": ""
        },
        "price": {
            "value": {
                "gp": 10000
            }
        },
        "quantity": 1,
        "rules": [],
        "size": "med",
        "source": {
            "value": "Pathfinder Core Rulebook"
        },
        "stackGroup": null,
        "traits": {
            "custom": "",
            "rarity": "common",
            "value": [
                "illusion",
                "magical",
                "wand"
            ]
        },
        "usage": {
            "value": "held-in-one-hand"
        },
        "weight": {
            "value": "L"
        }
    },
    "img": "systems/pf2e/icons/equipment/wands/specialty-wands/wand-of-slaying.webp",
    "name": "Wand of Slaying (7th-Level Spell)",
    "type": "equipment"
}
