{
    "_id": "zToq18jKonWIp48U",
    "data": {
        "baseItem": null,
        "containerId": null,
        "description": {
            "value": "<p>This blackened, heavily burned stick smells faintly of bat guano.</p>\n<p><strong>Activate</strong> Cast a Spell</p>\n<p><strong>Frequency</strong> Once per day, plus overcharge</p>\n<p><strong>Effect</strong> You cast <em>@Compendium[pf2e.spells-srd.Fireball]{Fireball}</em> at 5th level.</p>\n<p>Each creature that fails its save takes [[/r {2d6}[persistent,fire]]] @Compendium[pf2e.conditionitems.Persistent Damage]{Persistent Fire Damage}.</p>\n<p><strong>Craft Requirements</strong> Supply a casting of fireball of the appropriate level.</p>"
        },
        "equippedBulk": {
            "value": ""
        },
        "hardness": 0,
        "hp": {
            "brokenThreshold": 0,
            "max": 0,
            "value": 0
        },
        "level": {
            "value": 12
        },
        "negateBulk": {
            "value": "0"
        },
        "preciousMaterial": {
            "value": ""
        },
        "preciousMaterialGrade": {
            "value": ""
        },
        "price": {
            "value": {
                "gp": 2000
            }
        },
        "quantity": 1,
        "rules": [],
        "size": "med",
        "source": {
            "value": "Pathfinder Core Rulebook"
        },
        "stackGroup": null,
        "traits": {
            "custom": "",
            "rarity": "common",
            "value": [
                "evocation",
                "fire",
                "magical",
                "wand"
            ]
        },
        "usage": {
            "value": "held-in-one-hand"
        },
        "weight": {
            "value": "L"
        }
    },
    "img": "systems/pf2e/icons/equipment/wands/specialty-wands/wand-of-smoldering-fireballs.webp",
    "name": "Wand of Smoldering Fireballs (5th-Level Spell)",
    "type": "equipment"
}
