{
    "_id": "3d3NAcPfvn07mcGN",
    "data": {
        "abilities": {
            "cha": {
                "mod": 4
            },
            "con": {
                "mod": 3
            },
            "dex": {
                "mod": 5
            },
            "int": {
                "mod": -2
            },
            "str": {
                "mod": 5
            },
            "wis": {
                "mod": 3
            }
        },
        "attributes": {
            "ac": {
                "details": "",
                "value": 28
            },
            "allSaves": {
                "value": ""
            },
            "hp": {
                "details": "",
                "max": 152,
                "temp": 0,
                "value": 152
            },
            "initiative": {
                "ability": "perception"
            },
            "perception": {
                "value": 18
            },
            "speed": {
                "otherSpeeds": [],
                "value": "15"
            }
        },
        "details": {
            "alignment": {
                "value": "CE"
            },
            "blurb": "",
            "creatureType": "Aberration",
            "level": {
                "value": 8
            },
            "privateNotes": "",
            "publicNotes": "<p>Irnakurse are surface elves who drow have subjected to particularly cruel and humiliating fleshwarping practices, as drow take special delight in the torment of their surface-dwelling kin. The process of crafting an irnakurse involves twisting an unfortunate elf into a deformed mass of misplaced limbs, loose flesh, and bony protrusions-parts that should be internal are often left on full display to the world. Irnakurse are subject to mental conditioning that causes them to hate their prior forms, and these creatures prefer to attack surface elves over all other targets.</p>\n<hr />\n<p>Horrid abominations reshaped by vile alchemical magic, the two fleshwarps presented here were created by drow, who transform captured elves or xulgaths into twisted monstrosities that can then be loosed to cause havoc and terror.</p>",
            "source": {
                "value": "Pathfinder #164: Hands of the Devil"
            }
        },
        "resources": {},
        "saves": {
            "fortitude": {
                "saveDetail": "",
                "value": 20
            },
            "reflex": {
                "saveDetail": "",
                "value": 18
            },
            "will": {
                "saveDetail": "",
                "value": 16
            }
        },
        "traits": {
            "attitude": {
                "value": "hostile"
            },
            "ci": [],
            "di": {
                "custom": "",
                "value": []
            },
            "dr": [],
            "dv": [],
            "languages": {
                "custom": "(Can't Speak Any Language)",
                "selected": [],
                "value": [
                    "abyssal",
                    "elven",
                    "undercommon"
                ]
            },
            "rarity": "common",
            "senses": {
                "value": "darkvision"
            },
            "size": {
                "value": "lg"
            },
            "traits": {
                "custom": "",
                "value": [
                    "aberration"
                ]
            }
        }
    },
    "img": "systems/pf2e/icons/default-icons/npc.svg",
    "items": [
        {
            "_id": "93s2yi7nb08mzhdu",
            "data": {
                "active": true,
                "alsoApplies": {
                    "linked": [],
                    "unlinked": []
                },
                "base": "Frightened",
                "description": {
                    "value": "<p>You're gripped by fear and struggle to control your nerves. The frightened condition always includes a value. You take a status penalty equal to this value to all your checks and DCs. Unless specified otherwise, at the end of each of your turns, the value of your frightened condition decreases by 1.</p>"
                },
                "duration": {
                    "perpetual": true,
                    "text": "",
                    "value": 0
                },
                "group": "",
                "hud": {
                    "img": {
                        "useStatusName": true,
                        "value": "systems/pf2e/icons/conditions-2/frightened.webp"
                    },
                    "selectable": true,
                    "statusName": "frightened"
                },
                "modifiers": [
                    {
                        "group": "all",
                        "type": "status"
                    }
                ],
                "overrides": [],
                "references": {
                    "children": [],
                    "immunityFrom": [],
                    "overriddenBy": [],
                    "overrides": []
                },
                "removable": true,
                "rules": [],
                "slug": "frightened",
                "source": {
                    "value": ""
                },
                "sources": {
                    "hud": true,
                    "values": []
                },
                "traits": {
                    "custom": "",
                    "rarity": "common",
                    "value": []
                },
                "value": {
                    "immutable": false,
                    "isValued": true,
                    "modifiers": [],
                    "value": 2
                }
            },
            "flags": {
                "core": {
                    "sourceId": "Compendium.pf2e.conditionitems.TBSHQspnbcqxsmjL"
                },
                "pf2e": {
                    "condition": true
                }
            },
            "img": "systems/pf2e/icons/conditions/frightened.webp",
            "name": "Frightened",
            "sort": 100000,
            "type": "condition"
        },
        {
            "_id": "gH06P6rp2bswuGya",
            "data": {
                "attack": {
                    "value": ""
                },
                "attackEffects": {
                    "custom": "",
                    "value": []
                },
                "bonus": {
                    "value": 20
                },
                "damageRolls": {
                    "3frcv0yi2cnpe50zp9jj": {
                        "damage": "2d12+11",
                        "damageType": "piercing"
                    }
                },
                "description": {
                    "value": ""
                },
                "rules": [],
                "slug": null,
                "source": {
                    "value": ""
                },
                "traits": {
                    "custom": "",
                    "rarity": "common",
                    "value": [
                        "reach-10"
                    ]
                },
                "weaponType": {
                    "value": "melee"
                }
            },
            "img": "systems/pf2e/icons/default-icons/melee.svg",
            "name": "Jaws",
            "sort": 200000,
            "type": "melee"
        },
        {
            "_id": "kJAxB9HM1zsPkPDC",
            "data": {
                "attack": {
                    "value": ""
                },
                "attackEffects": {
                    "custom": "",
                    "value": [
                        "mind-lash"
                    ]
                },
                "bonus": {
                    "value": 20
                },
                "damageRolls": {
                    "0": {
                        "damage": "2d8+11",
                        "damageType": "slashing"
                    }
                },
                "description": {
                    "value": ""
                },
                "rules": [],
                "slug": null,
                "source": {
                    "value": ""
                },
                "traits": {
                    "custom": "",
                    "rarity": "common",
                    "value": [
                        "agile",
                        "reach-20"
                    ]
                },
                "weaponType": {
                    "value": "melee"
                }
            },
            "img": "systems/pf2e/icons/default-icons/melee.svg",
            "name": "Tentacle",
            "sort": 300000,
            "type": "melee"
        },
        {
            "_id": "iPIBtZVZ5TaPEFp6",
            "data": {
                "actionCategory": {
                    "value": "interaction"
                },
                "actionType": {
                    "value": "passive"
                },
                "actions": {
                    "value": null
                },
                "description": {
                    "value": "<p>@Localize[PF2E.NPC.Abilities.Glossary.Darkvision]</p>"
                },
                "requirements": {
                    "value": ""
                },
                "rules": [],
                "slug": "darkvision",
                "source": {
                    "value": ""
                },
                "traits": {
                    "custom": "",
                    "rarity": "common",
                    "value": []
                },
                "trigger": {
                    "value": ""
                },
                "weapon": {
                    "value": ""
                }
            },
            "flags": {
                "core": {
                    "sourceId": "Compendium.pf2e.bestiary-ability-glossary-srd.qCCLZhnp2HhP3Ex6"
                }
            },
            "img": "systems/pf2e/icons/actions/Passive.webp",
            "name": "Darkvision",
            "sort": 400000,
            "type": "action"
        },
        {
            "_id": "bxjYZ892TLi9AizW",
            "data": {
                "actionCategory": {
                    "value": "defensive"
                },
                "actionType": {
                    "value": "reaction"
                },
                "actions": {
                    "value": null
                },
                "description": {
                    "value": "<p>@Localize[PF2E.NPC.Abilities.Glossary.AttackOfOpportunity]</p>"
                },
                "requirements": {
                    "value": ""
                },
                "rules": [],
                "slug": "attack-of-opportunity",
                "source": {
                    "value": ""
                },
                "traits": {
                    "custom": "",
                    "rarity": "common",
                    "value": []
                },
                "trigger": {
                    "value": ""
                },
                "weapon": {
                    "value": ""
                }
            },
            "flags": {
                "core": {
                    "sourceId": "Compendium.pf2e.bestiary-ability-glossary-srd.hFtNbo1LKYCoDy2O"
                }
            },
            "img": "systems/pf2e/icons/actions/Reaction.webp",
            "name": "Attack of Opportunity",
            "sort": 500000,
            "type": "action"
        },
        {
            "_id": "PXA2uFcT0VRiQkBO",
            "data": {
                "actionCategory": {
                    "value": "offensive"
                },
                "actionType": {
                    "value": "passive"
                },
                "actions": {
                    "value": null
                },
                "description": {
                    "value": "<p>The irnakurse is permanently @Compendium[pf2e.conditionitems.Frightened]{Frightened 2}, which lowers its effective level by 1.</p>"
                },
                "requirements": {
                    "value": ""
                },
                "rules": [],
                "slug": null,
                "source": {
                    "value": ""
                },
                "traits": {
                    "custom": "",
                    "rarity": "common",
                    "value": []
                },
                "trigger": {
                    "value": ""
                }
            },
            "img": "systems/pf2e/icons/actions/Passive.webp",
            "name": "Fearful Curse",
            "sort": 600000,
            "type": "action"
        },
        {
            "_id": "o40ddeHAtx8cJ0uY",
            "data": {
                "actionCategory": {
                    "value": "offensive"
                },
                "actionType": {
                    "value": "passive"
                },
                "actions": {
                    "value": null
                },
                "description": {
                    "value": "<p>A non-evil creature hit by an irnakurse's tentacle is overwhelmed with corrupted images of a ruined life and must succeed at a @Check[type:will|dc:28] save or be @Compendium[pf2e.conditionitems.Stunned]{Stunned 2} (or @Compendium[pf2e.conditionitems.Stunned]{Stunned 4} on a critical failure).</p>\n<p>After attempting this save, a creature is temporarily immune to Mind Lash for 24 hours.</p>"
                },
                "requirements": {
                    "value": ""
                },
                "rules": [],
                "slug": null,
                "source": {
                    "value": ""
                },
                "traits": {
                    "custom": "",
                    "rarity": "common",
                    "value": [
                        "emotion",
                        "enchantment",
                        "mental",
                        "occult"
                    ]
                },
                "trigger": {
                    "value": ""
                },
                "weapon": {
                    "value": ""
                }
            },
            "img": "systems/pf2e/icons/actions/Passive.webp",
            "name": "Mind Lash",
            "sort": 700000,
            "type": "action"
        },
        {
            "_id": "3AqKPdexSndZxd5X",
            "data": {
                "actionCategory": {
                    "value": "offensive"
                },
                "actionType": {
                    "value": "action"
                },
                "actions": {
                    "value": 1
                },
                "description": {
                    "value": "<p>Tentacle</p>\n<hr />\n<p>@Localize[PF2E.NPC.Abilities.Glossary.Rend]</p>"
                },
                "requirements": {
                    "value": ""
                },
                "rules": [],
                "slug": "rend",
                "source": {
                    "value": ""
                },
                "traits": {
                    "custom": "",
                    "rarity": "common",
                    "value": []
                },
                "trigger": {
                    "value": ""
                },
                "weapon": {
                    "value": ""
                }
            },
            "flags": {
                "core": {
                    "sourceId": "Compendium.pf2e.bestiary-ability-glossary-srd.3JOi2cMcGhT3eze1"
                }
            },
            "img": "systems/pf2e/icons/actions/OneAction.webp",
            "name": "Rend",
            "sort": 800000,
            "type": "action"
        },
        {
            "_id": "jr6lRjG0ZeZgW116",
            "data": {
                "actionCategory": {
                    "value": "offensive"
                },
                "actionType": {
                    "value": "action"
                },
                "actions": {
                    "value": 2
                },
                "description": {
                    "value": "<p><strong>Frequency</strong> once per day</p>\n<p><strong>Effect</strong> The irnakurse unleashes an alien shriek of nightmarish horror and pain. All non-evil creatures within a @Template[type:emanation|distance:10] must attempt a @Check[type:will|dc:28] save. The irnakurse can Sustain Soul Scream for up to 6 rounds; each time it does, it repeats the effect.</p>\n<hr />\n<p><strong>Critical Success</strong> The creature is unaffected, and is temporarily immune to Soul Scream for 24 hours.</p>\n<p><strong>Success</strong> The creature is @Compendium[pf2e.conditionitems.Stupefied]{Stupefied 1} for 1 round.</p>\n<p><strong>Failure</strong> The creature is stupefied 1. Further failed saves against Soul Scream increase the condition value by 1, to a maximum of stupefied 4. Each time the character gets a full night's rest, the stupefied condition gained from Soul Scream decreases by 1.</p>\n<p><strong>Critical Failure</strong> As failure, except the stupefied value increases by 2 instead of by 1.</p>"
                },
                "requirements": {
                    "value": ""
                },
                "rules": [],
                "slug": null,
                "source": {
                    "value": ""
                },
                "traits": {
                    "custom": "",
                    "rarity": "common",
                    "value": [
                        "auditory",
                        "concentrate",
                        "emotion",
                        "enchantment",
                        "mental",
                        "occult"
                    ]
                },
                "trigger": {
                    "value": ""
                },
                "weapon": {
                    "value": ""
                }
            },
            "img": "systems/pf2e/icons/actions/TwoActions.webp",
            "name": "Soul Scream",
            "sort": 900000,
            "type": "action"
        },
        {
            "_id": "ml69ZMPwkVsbCTC7",
            "data": {
                "actionCategory": {
                    "value": "offensive"
                },
                "actionType": {
                    "value": "action"
                },
                "actions": {
                    "value": 2
                },
                "description": {
                    "value": "<p>The irnakurse makes up to four tentacle Strikes, each against a different target. These attacks count toward the irnakurse's multiple attack penalty, but the multiple attack penalty doesn't increase until after it makes all of its attacks.</p>"
                },
                "requirements": {
                    "value": ""
                },
                "rules": [],
                "slug": null,
                "source": {
                    "value": ""
                },
                "traits": {
                    "custom": "",
                    "rarity": "common",
                    "value": []
                },
                "trigger": {
                    "value": ""
                },
                "weapon": {
                    "value": ""
                }
            },
            "img": "systems/pf2e/icons/actions/TwoActions.webp",
            "name": "Storm of Tentacles",
            "sort": 1000000,
            "type": "action"
        },
        {
            "_id": "SVAyaWNQdLEB8T8O",
            "data": {
                "description": {
                    "value": ""
                },
                "mod": {
                    "value": 20
                },
                "proficient": {
                    "value": 0
                },
                "rules": [],
                "slug": null,
                "source": {
                    "value": ""
                },
                "traits": {
                    "custom": "",
                    "rarity": "common",
                    "value": []
                }
            },
            "img": "systems/pf2e/icons/default-icons/lore.svg",
            "name": "Acrobatics",
            "sort": 1100000,
            "type": "lore"
        },
        {
            "_id": "SKVDodNz8cPMHoc8",
            "data": {
                "description": {
                    "value": ""
                },
                "mod": {
                    "value": 20
                },
                "proficient": {
                    "value": 0
                },
                "rules": [],
                "slug": null,
                "source": {
                    "value": ""
                },
                "traits": {
                    "custom": "",
                    "rarity": "common",
                    "value": []
                }
            },
            "img": "systems/pf2e/icons/default-icons/lore.svg",
            "name": "Athletics",
            "sort": 1200000,
            "type": "lore"
        },
        {
            "_id": "5pLdy4qjWpi4yWh8",
            "data": {
                "description": {
                    "value": ""
                },
                "mod": {
                    "value": 20
                },
                "proficient": {
                    "value": 0
                },
                "rules": [],
                "slug": null,
                "source": {
                    "value": ""
                },
                "traits": {
                    "custom": "",
                    "rarity": "common",
                    "value": []
                }
            },
            "img": "systems/pf2e/icons/default-icons/lore.svg",
            "name": "Stealth",
            "sort": 1300000,
            "type": "lore"
        }
    ],
    "name": "Afflicted Irnakurse",
    "token": {
        "disposition": -1,
        "height": 2,
        "img": "systems/pf2e/icons/default-icons/npc.svg",
        "name": "Afflicted Irnakurse",
        "width": 2
    },
    "type": "npc"
}
