{
    "_id": "ceLvlSQsYNORH8oM",
    "data": {
        "abilities": {
            "cha": {
                "mod": 3
            },
            "con": {
                "mod": 3
            },
            "dex": {
                "mod": 6
            },
            "int": {
                "mod": 6
            },
            "str": {
                "mod": 0
            },
            "wis": {
                "mod": 4
            }
        },
        "attributes": {
            "ac": {
                "details": "",
                "value": 30
            },
            "allSaves": {
                "value": ""
            },
            "hp": {
                "details": "",
                "max": 90,
                "temp": 0,
                "value": 90
            },
            "initiative": {
                "ability": "perception"
            },
            "perception": {
                "value": 18
            },
            "speed": {
                "otherSpeeds": [
                    {
                        "type": "fly",
                        "value": "40"
                    }
                ],
                "value": "0"
            }
        },
        "details": {
            "alignment": {
                "value": "CE"
            },
            "blurb": "",
            "creatureType": "",
            "level": {
                "value": 8
            },
            "privateNotes": "",
            "publicNotes": "<p>A voidglutton is a powerful type of will-o'-wisp that haunts a site where misery dwells-such as a graveyard, prison camp, or recent battlefield. A voidglutton appears as a seething sphere of glowing eyes swirling around an empty black vortex 4 feet wide. From within this vortex extend long, semi-transparent tendrils that end in seven-fingered, needled hands.</p>",
            "source": {
                "value": "Pathfinder #163: Ruins of Gauntlight"
            }
        },
        "resources": {
            "focus": {
                "max": 1,
                "value": 1
            }
        },
        "saves": {
            "fortitude": {
                "saveDetail": "",
                "value": 13
            },
            "reflex": {
                "saveDetail": "",
                "value": 18
            },
            "will": {
                "saveDetail": "",
                "value": 16
            }
        },
        "traits": {
            "ci": [],
            "di": {
                "custom": "",
                "value": [
                    "magic"
                ]
            },
            "dr": [],
            "dv": [],
            "languages": {
                "custom": "",
                "selected": [],
                "value": [
                    "aklo",
                    "common"
                ]
            },
            "rarity": "rare",
            "senses": {
                "value": "darkvision"
            },
            "size": {
                "value": "med"
            },
            "traits": {
                "custom": "",
                "value": [
                    "aberration",
                    "air"
                ]
            }
        }
    },
    "img": "systems/pf2e/icons/default-icons/npc.svg",
    "items": [
        {
            "_id": "BZL7n09A5aQfGHjz",
            "data": {
                "autoHeightenLevel": {
                    "value": null
                },
                "description": {
                    "value": ""
                },
                "displayLevels": {},
                "prepared": {
                    "flexible": false,
                    "value": "innate"
                },
                "proficiency": {
                    "value": 1
                },
                "rules": [],
                "showSlotlessLevels": {
                    "value": false
                },
                "showUnpreparedSpells": {
                    "value": true
                },
                "slots": {
                    "slot0": {
                        "max": 0,
                        "prepared": [],
                        "value": 0
                    },
                    "slot1": {
                        "max": 0,
                        "prepared": [],
                        "value": 0
                    },
                    "slot10": {
                        "max": 0,
                        "prepared": [],
                        "value": 0
                    },
                    "slot11": {
                        "max": 0,
                        "prepared": [],
                        "value": 0
                    },
                    "slot2": {
                        "max": 0,
                        "prepared": [],
                        "value": 0
                    },
                    "slot3": {
                        "max": 0,
                        "prepared": [],
                        "value": 0
                    },
                    "slot4": {
                        "max": 0,
                        "prepared": [],
                        "value": 0
                    },
                    "slot5": {
                        "max": 0,
                        "prepared": [],
                        "value": 0
                    },
                    "slot6": {
                        "max": 0,
                        "prepared": [],
                        "value": 0
                    },
                    "slot7": {
                        "max": 0,
                        "prepared": [],
                        "value": 0
                    },
                    "slot8": {
                        "max": 0,
                        "prepared": [],
                        "value": 0
                    },
                    "slot9": {
                        "max": 0,
                        "prepared": [],
                        "value": 0
                    }
                },
                "slug": null,
                "source": {
                    "value": ""
                },
                "spelldc": {
                    "dc": 26,
                    "mod": 0,
                    "value": 18
                },
                "tradition": {
                    "value": "occult"
                },
                "traits": {
                    "custom": "",
                    "rarity": "common",
                    "value": []
                }
            },
            "img": "systems/pf2e/icons/default-icons/spellcastingEntry.svg",
            "name": "Occult Innate Spells",
            "sort": 100000,
            "type": "spellcastingEntry"
        },
        {
            "_id": "BeVACGeSdq4dZpvw",
            "data": {
                "ability": {
                    "value": ""
                },
                "area": {
                    "areaType": "burst",
                    "value": "20"
                },
                "areasize": {
                    "value": "20-foot burst"
                },
                "category": {
                    "value": "spell"
                },
                "components": {
                    "focus": false,
                    "material": true,
                    "somatic": true,
                    "verbal": true
                },
                "cost": {
                    "value": ""
                },
                "damage": {
                    "value": {}
                },
                "description": {
                    "value": "<p>You create a shroud of darkness that prevents light from penetrating or emanating within the area. Light does not enter the area and any non-magical light sources, such as a torch or lantern, do not emanate any light while inside the area, even if their light radius would extend beyond the darkness. This also suppresses magical light of your darkness spell's level or lower. Light can't pass through, so creatures in the area can't see outside. From outside, it appears as a globe of pure darkness.</p>\n<hr />\n<p><strong>Heightened (4th)</strong> Even creatures with darkvision (but not greater darkvision) can barely see through the darkness. They treat targets seen through the darkness as @Compendium[pf2e.conditionitems.Concealed]{Concealed}.</p>"
                },
                "duration": {
                    "value": "1 minute"
                },
                "hasCounteractCheck": {
                    "value": false
                },
                "level": {
                    "value": 2
                },
                "location": {
                    "heightenedLevel": 4,
                    "value": "BZL7n09A5aQfGHjz"
                },
                "materials": {
                    "value": ""
                },
                "prepared": {
                    "value": ""
                },
                "primarycheck": {
                    "value": ""
                },
                "range": {
                    "value": "120 feet"
                },
                "rules": [],
                "save": {
                    "basic": "",
                    "value": ""
                },
                "school": {
                    "value": "evocation"
                },
                "secondarycasters": {
                    "value": ""
                },
                "secondarycheck": {
                    "value": ""
                },
                "slug": "darkness",
                "source": {
                    "value": "Pathfinder Core Rulebook"
                },
                "spellType": {
                    "value": "utility"
                },
                "sustained": {
                    "value": false
                },
                "target": {
                    "value": ""
                },
                "time": {
                    "value": "3"
                },
                "traditions": {
                    "value": [
                        "arcane",
                        "divine",
                        "occult",
                        "primal"
                    ]
                },
                "traits": {
                    "custom": "",
                    "rarity": "common",
                    "value": [
                        "darkness"
                    ]
                }
            },
            "flags": {
                "core": {
                    "sourceId": "Compendium.pf2e.spells-srd.4GE2ZdODgIQtg51c"
                }
            },
            "img": "systems/pf2e/icons/spells/darkness.webp",
            "name": "Darkness (At Will)",
            "sort": 200000,
            "type": "spell"
        },
        {
            "_id": "WsGIMLD86LgMNUWg",
            "data": {
                "attack": {
                    "value": ""
                },
                "attackEffects": {
                    "custom": "",
                    "value": [
                        "fearful-strike"
                    ]
                },
                "bonus": {
                    "value": 20
                },
                "damageRolls": {
                    "rcytt82gz8dih0hvh7oh": {
                        "damage": "1d6+2",
                        "damageType": "piercing"
                    },
                    "p2netin17bko1wkmywuo": {
                        "damage": "4d6",
                        "damageType": "force"
                    }
                },
                "description": {
                    "value": ""
                },
                "rules": [],
                "slug": null,
                "source": {
                    "value": ""
                },
                "traits": {
                    "custom": "",
                    "rarity": "common",
                    "value": [
                        "agile",
                        "finesse"
                    ]
                },
                "weaponType": {
                    "value": "melee"
                }
            },
            "img": "systems/pf2e/icons/default-icons/melee.svg",
            "name": "Claw",
            "sort": 300000,
            "type": "melee"
        },
        {
            "_id": "zGg5a7ALqF7zVFCa",
            "data": {
                "attack": {
                    "value": ""
                },
                "attackEffects": {
                    "custom": "",
                    "value": [
                        "ectoplasmic-web-trap"
                    ]
                },
                "bonus": {
                    "value": 20
                },
                "damageRolls": {},
                "description": {
                    "value": ""
                },
                "rules": [],
                "slug": null,
                "source": {
                    "value": ""
                },
                "traits": {
                    "custom": "",
                    "rarity": "common",
                    "value": [
                        "range-increment-10"
                    ]
                },
                "weaponType": {
                    "value": "ranged"
                }
            },
            "img": "systems/pf2e/icons/default-icons/melee.svg",
            "name": "Ectoplasmic Web",
            "sort": 400000,
            "type": "melee"
        },
        {
            "_id": "kCh7O0sugL7oCnHv",
            "data": {
                "actionCategory": {
                    "value": "interaction"
                },
                "actionType": {
                    "value": "passive"
                },
                "actions": {
                    "value": null
                },
                "description": {
                    "value": "<p>@Localize[PF2E.NPC.Abilities.Glossary.Darkvision]</p>"
                },
                "requirements": {
                    "value": ""
                },
                "rules": [],
                "slug": "darkvision",
                "source": {
                    "value": ""
                },
                "traits": {
                    "custom": "",
                    "rarity": "common",
                    "value": []
                },
                "trigger": {
                    "value": ""
                },
                "weapon": {
                    "value": ""
                }
            },
            "flags": {
                "core": {
                    "sourceId": "Compendium.pf2e.bestiary-ability-glossary-srd.qCCLZhnp2HhP3Ex6"
                }
            },
            "img": "systems/pf2e/icons/actions/Passive.webp",
            "name": "Darkvision",
            "sort": 500000,
            "type": "action"
        },
        {
            "_id": "O2CT9C7oM6YOLZNX",
            "data": {
                "actionCategory": {
                    "value": "defensive"
                },
                "actionType": {
                    "value": "passive"
                },
                "actions": {
                    "value": null
                },
                "description": {
                    "value": "<p>@Template[type:emanation|distance:30]{30 feet} @Compendium[pf2e.bestiary-ability-glossary-srd.Aura]{Aura}</p>\n<hr />\n<p>The tips of a voidglutton's fingers and its seven eyes glow, casting bright light in the area and making it visible if it was @Compendium[pf2e.conditionitems.Invisible]{Invisible}.</p>"
                },
                "requirements": {
                    "value": ""
                },
                "rules": [],
                "slug": null,
                "source": {
                    "value": ""
                },
                "traits": {
                    "custom": "",
                    "rarity": "common",
                    "value": [
                        "aura",
                        "light"
                    ]
                },
                "trigger": {
                    "value": ""
                },
                "weapon": {
                    "value": ""
                }
            },
            "img": "systems/pf2e/icons/actions/Passive.webp",
            "name": "Glow",
            "sort": 600000,
            "type": "action"
        },
        {
            "_id": "JPj4ayUtkVtkvYCy",
            "data": {
                "actionCategory": {
                    "value": "offensive"
                },
                "actionType": {
                    "value": "free"
                },
                "actions": {
                    "value": null
                },
                "description": {
                    "value": "<p><strong>Trigger</strong> The voidglutton casts <em>@Compendium[pf2e.spells-srd.Darkness]{Darkness}</em></p>\n<p><strong>Effect</strong> The voidglutton extinguishes its Glow as part of Casting the Spell. It becomes @Compendium[pf2e.conditionitems.Invisible]{Invisible} as long as it remains in the area of darkness. If the voidglutton uses a hostile action, its invisibility ends as soon as the hostile action is completed.</p>"
                },
                "requirements": {
                    "value": ""
                },
                "rules": [],
                "slug": null,
                "source": {
                    "value": ""
                },
                "traits": {
                    "custom": "",
                    "rarity": "common",
                    "value": [
                        "darkness",
                        "evocation",
                        "occult"
                    ]
                },
                "trigger": {
                    "value": ""
                },
                "weapon": {
                    "value": ""
                }
            },
            "img": "systems/pf2e/icons/actions/FreeAction.webp",
            "name": "Consume Light",
            "sort": 700000,
            "type": "action"
        },
        {
            "_id": "gdWSFRbbf21JhOa9",
            "data": {
                "actionCategory": {
                    "value": "offensive"
                },
                "actionType": {
                    "value": "passive"
                },
                "actions": {
                    "value": null
                },
                "description": {
                    "value": "<p>A creature hit by the voidglutton's ectoplasmic web trap is @Compendium[pf2e.conditionitems.Immobilized]{Immobilized} and stuck to the nearest surface until it succeeds at a DC 26 check to @Compendium[pf2e.actionspf2e.Escape]{Escape}. Ectoplasmic Web Trap can immobilize incorporeal creatures.</p>"
                },
                "requirements": {
                    "value": ""
                },
                "rules": [],
                "slug": null,
                "source": {
                    "value": ""
                },
                "traits": {
                    "custom": "",
                    "rarity": "common",
                    "value": [
                        "conjuration",
                        "occult"
                    ]
                },
                "trigger": {
                    "value": ""
                },
                "weapon": {
                    "value": ""
                }
            },
            "img": "systems/pf2e/icons/actions/Passive.webp",
            "name": "Ectoplasmic Web Trap",
            "sort": 800000,
            "type": "action"
        },
        {
            "_id": "rdEPYGmtMUuJ7I3P",
            "data": {
                "actionCategory": {
                    "value": "offensive"
                },
                "actionType": {
                    "value": "passive"
                },
                "actions": {
                    "value": null
                },
                "description": {
                    "value": "<p>When the voidglutton damages a creature with its claw Strike, the creature must succeed at a @Check[type:will|dc:26] save or become @Compendium[pf2e.conditionitems.Frightened]{Frightened 1} (@Compendium[pf2e.conditionitems.Frightened]{Frightened 2} on a critical failure).</p>"
                },
                "requirements": {
                    "value": ""
                },
                "rules": [],
                "slug": null,
                "source": {
                    "value": ""
                },
                "traits": {
                    "custom": "",
                    "rarity": "common",
                    "value": [
                        "emotion",
                        "fear",
                        "mental",
                        "occult"
                    ]
                },
                "trigger": {
                    "value": ""
                },
                "weapon": {
                    "value": ""
                }
            },
            "img": "systems/pf2e/icons/actions/Passive.webp",
            "name": "Fearful Strike",
            "sort": 900000,
            "type": "action"
        },
        {
            "_id": "45yP2nFzQUcp3Zvm",
            "data": {
                "actionCategory": {
                    "value": "offensive"
                },
                "actionType": {
                    "value": "action"
                },
                "actions": {
                    "value": 1
                },
                "description": {
                    "value": "<p><strong>Frequency</strong> once per round</p>\n<p><strong>Requirement</strong> An enemy is affected by a fear effect or has the frightened or dying condition, and is within 25 feet of the voidglutton</p>\n<p><strong>Effect</strong> The voidglutton feeds on the creature's terror. It regains [[/r {3d4}[healing]]]{3d4 Hit Points} and its Glow reignites if it had been extinguished.</p>\n<p>It cannot use Consume Light again for [[/br 1d4 #Recharge Consume Light]]{1d4 rounds}, as it is too glutted on fear to suppress its Glow.</p>"
                },
                "requirements": {
                    "value": ""
                },
                "rules": [],
                "slug": null,
                "source": {
                    "value": ""
                },
                "traits": {
                    "custom": "",
                    "rarity": "common",
                    "value": [
                        "concentrate"
                    ]
                },
                "trigger": {
                    "value": ""
                },
                "weapon": {
                    "value": ""
                }
            },
            "img": "systems/pf2e/icons/actions/OneAction.webp",
            "name": "Feed on Fear",
            "sort": 1000000,
            "type": "action"
        },
        {
            "_id": "k0izMsqD3Kbrn6oD",
            "data": {
                "actionCategory": {
                    "value": "offensive"
                },
                "actionType": {
                    "value": "passive"
                },
                "actions": {
                    "value": null
                },
                "description": {
                    "value": "<p>A voidglutton is immune to all spells except <em>@Compendium[pf2e.spells-srd.Faerie Fire]{Faerie Fire}</em>, <em>@Compendium[pf2e.spells-srd.Glitterdust]{Glitterdust}</em>, <em>@Compendium[pf2e.spells-srd.Magic Missile]{Magic Missile}</em>, <em>@Compendium[pf2e.spells-srd.Maze]{Maze}</em>, and spells with the light trait.</p>"
                },
                "requirements": {
                    "value": ""
                },
                "rules": [],
                "slug": null,
                "source": {
                    "value": ""
                },
                "traits": {
                    "custom": "",
                    "rarity": "common",
                    "value": []
                },
                "trigger": {
                    "value": ""
                },
                "weapon": {
                    "value": ""
                }
            },
            "img": "systems/pf2e/icons/actions/Passive.webp",
            "name": "Magic Immunity",
            "sort": 1100000,
            "type": "action"
        },
        {
            "_id": "csb4buUROte3sD1C",
            "data": {
                "description": {
                    "value": ""
                },
                "mod": {
                    "value": 18
                },
                "proficient": {
                    "value": 0
                },
                "rules": [],
                "slug": null,
                "source": {
                    "value": ""
                },
                "traits": {
                    "custom": "",
                    "rarity": "common",
                    "value": []
                }
            },
            "img": "systems/pf2e/icons/default-icons/lore.svg",
            "name": "Acrobatics",
            "sort": 1200000,
            "type": "lore"
        },
        {
            "_id": "G7O4AjlCNrZXmVPX",
            "data": {
                "description": {
                    "value": ""
                },
                "mod": {
                    "value": 15
                },
                "proficient": {
                    "value": 0
                },
                "rules": [],
                "slug": null,
                "source": {
                    "value": ""
                },
                "traits": {
                    "custom": "",
                    "rarity": "common",
                    "value": []
                }
            },
            "img": "systems/pf2e/icons/default-icons/lore.svg",
            "name": "Deception",
            "sort": 1300000,
            "type": "lore"
        },
        {
            "_id": "wRKLdw4G3XTGMMQY",
            "data": {
                "description": {
                    "value": ""
                },
                "mod": {
                    "value": 15
                },
                "proficient": {
                    "value": 0
                },
                "rules": [],
                "slug": null,
                "source": {
                    "value": ""
                },
                "traits": {
                    "custom": "",
                    "rarity": "common",
                    "value": []
                }
            },
            "img": "systems/pf2e/icons/default-icons/lore.svg",
            "name": "Intimidation",
            "sort": 1400000,
            "type": "lore"
        },
        {
            "_id": "Qk015JNavCyF4oNJ",
            "data": {
                "description": {
                    "value": ""
                },
                "mod": {
                    "value": 18
                },
                "proficient": {
                    "value": 0
                },
                "rules": [],
                "slug": null,
                "source": {
                    "value": ""
                },
                "traits": {
                    "custom": "",
                    "rarity": "common",
                    "value": []
                }
            },
            "img": "systems/pf2e/icons/default-icons/lore.svg",
            "name": "Occultism",
            "sort": 1500000,
            "type": "lore"
        },
        {
            "_id": "fQd01Fe9d8WvsCDu",
            "data": {
                "description": {
                    "value": ""
                },
                "mod": {
                    "value": 18
                },
                "proficient": {
                    "value": 0
                },
                "rules": [],
                "slug": null,
                "source": {
                    "value": ""
                },
                "traits": {
                    "custom": "",
                    "rarity": "common",
                    "value": []
                }
            },
            "img": "systems/pf2e/icons/default-icons/lore.svg",
            "name": "Stealth",
            "sort": 1600000,
            "type": "lore"
        }
    ],
    "name": "Voidglutton",
    "token": {
        "disposition": -1,
        "height": 1,
        "img": "systems/pf2e/icons/default-icons/npc.svg",
        "name": "Voidglutton",
        "width": 1
    },
    "type": "npc"
}
