{
    "_id": "uP6dE5adlWJ9DrFY",
    "data": {
        "abilities": {
            "cha": {
                "mod": 4
            },
            "con": {
                "mod": 0
            },
            "dex": {
                "mod": 3
            },
            "int": {
                "mod": 1
            },
            "str": {
                "mod": -5
            },
            "wis": {
                "mod": 1
            }
        },
        "attributes": {
            "ac": {
                "details": "",
                "value": 19
            },
            "allSaves": {
                "value": null
            },
            "hp": {
                "details": "negative healing",
                "max": 50,
                "temp": 0,
                "value": 50
            },
            "initiative": {
                "ability": "perception"
            },
            "perception": {
                "value": 9
            },
            "speed": {
                "otherSpeeds": [
                    {
                        "type": "fly",
                        "value": "30"
                    }
                ],
                "value": "0"
            }
        },
        "details": {
            "alignment": {
                "value": "CE"
            },
            "blurb": "",
            "creatureType": "",
            "level": {
                "value": 4
            },
            "privateNotes": "",
            "publicNotes": "<p>Creatures that once held particular items dear can be bound to them after death, their souls inhabiting the item from within. These might be the faithful haunting symbols of their faith, warriors clinging to their old weapons, or the greedy inhabiting their precious wealth. These spirits' physical bodies have long since degraded, but they keep their corrupted relics pristine. The spirits manifest on the unsuspecting or curious, determined to destroy anyone who would dare show any interest in their one precious possession.</p>\n<p>Though rare, there are several kinds of corrupted relics. The bound spirit can manifest in different ways, from animating an ancient weapon to possessing anyone who dons the item. Destroying the relic often ends up being the simplest, most direct way to banish the haunt itself. Destroying or dispelling the spirit without destroying the relic, however, can sometimes leave priceless treasure behind.</p>\n<p>The amulet shown here has the air and death aspects. Its minor gifts, deadly spark and death gaze, power some of the spirit's abilities. Someone who claims the relic might gain different gifts from those aspects.</p>",
            "source": {
                "value": "Pathfinder Bestiary 3"
            }
        },
        "resources": {},
        "saves": {
            "fortitude": {
                "saveDetail": "",
                "value": 6
            },
            "reflex": {
                "saveDetail": "",
                "value": 11
            },
            "will": {
                "saveDetail": "",
                "value": 11
            }
        },
        "traits": {
            "attitude": {
                "value": "hostile"
            },
            "ci": [],
            "di": {
                "custom": "",
                "value": [
                    "death-effects",
                    "disease",
                    "paralyzed",
                    "poison",
                    "precision",
                    "unconscious"
                ]
            },
            "dr": [
                {
                    "exceptions": "except force",
                    "type": "all",
                    "value": 5
                }
            ],
            "dv": [],
            "languages": {
                "custom": "",
                "selected": [],
                "value": [
                    "common",
                    "elven"
                ]
            },
            "rarity": "rare",
            "senses": {
                "value": "darkvision, lifesense (imprecise) 60 feet"
            },
            "size": {
                "value": "med"
            },
            "traits": {
                "custom": "",
                "value": [
                    "incorporeal",
                    "spirit",
                    "undead"
                ]
            }
        }
    },
    "img": "systems/pf2e/icons/default-icons/npc.svg",
    "items": [
        {
            "_id": "1D9pvEMsaT8zBn9j",
            "data": {
                "baseItem": null,
                "containerId": null,
                "description": {
                    "value": ""
                },
                "equipped": {
                    "carryType": "worn",
                    "invested": null
                },
                "equippedBulk": {
                    "value": ""
                },
                "hardness": 0,
                "hp": {
                    "brokenThreshold": 0,
                    "max": 0,
                    "value": 0
                },
                "level": {
                    "value": 0
                },
                "negateBulk": {
                    "value": "0"
                },
                "preciousMaterial": {
                    "value": ""
                },
                "preciousMaterialGrade": {
                    "value": ""
                },
                "price": {
                    "value": {}
                },
                "quantity": 1,
                "rules": [],
                "size": "med",
                "slug": null,
                "source": {
                    "value": ""
                },
                "stackGroup": null,
                "traits": {
                    "custom": "",
                    "rarity": "common",
                    "value": []
                },
                "usage": {
                    "value": "worn"
                },
                "weight": {
                    "value": "-"
                }
            },
            "img": "systems/pf2e/icons/default-icons/mystery-man.svg",
            "name": "Amulet",
            "sort": 100000,
            "type": "equipment"
        },
        {
            "_id": "4KGlzeHqmtsJnLv9",
            "data": {
                "attack": {
                    "value": ""
                },
                "attackEffects": {
                    "custom": "",
                    "value": []
                },
                "bonus": {
                    "value": 14
                },
                "damageRolls": {
                    "0": {
                        "damage": "2d6+3",
                        "damageType": "negative"
                    }
                },
                "description": {
                    "value": ""
                },
                "rules": [],
                "slug": null,
                "source": {
                    "value": ""
                },
                "traits": {
                    "custom": "",
                    "rarity": "common",
                    "value": [
                        "agile",
                        "finesse",
                        "magical"
                    ]
                },
                "weaponType": {
                    "value": "melee"
                }
            },
            "img": "systems/pf2e/icons/default-icons/melee.svg",
            "name": "Spectral Hand",
            "sort": 200000,
            "type": "melee"
        },
        {
            "_id": "e4gcYFnxnq6FmPws",
            "data": {
                "attack": {
                    "value": ""
                },
                "attackEffects": {
                    "custom": "",
                    "value": []
                },
                "bonus": {
                    "value": 14
                },
                "damageRolls": {
                    "0": {
                        "damage": "1d12",
                        "damageType": "electricity"
                    }
                },
                "description": {
                    "value": ""
                },
                "rules": [],
                "slug": null,
                "source": {
                    "value": ""
                },
                "traits": {
                    "custom": "",
                    "rarity": "common",
                    "value": [
                        "air",
                        "electricity",
                        "divine",
                        "evocation",
                        "range-increment-20"
                    ]
                },
                "weaponType": {
                    "value": "ranged"
                }
            },
            "img": "systems/pf2e/icons/default-icons/melee.svg",
            "name": "Deadly Spark",
            "sort": 300000,
            "type": "melee"
        },
        {
            "_id": "98oLnVVl0tvsGdHl",
            "data": {
                "actionCategory": {
                    "value": "interaction"
                },
                "actionType": {
                    "value": "passive"
                },
                "actions": {
                    "value": null
                },
                "description": {
                    "value": "<p>@Localize[PF2E.NPC.Abilities.Glossary.Darkvision]</p>"
                },
                "requirements": {
                    "value": ""
                },
                "rules": [],
                "slug": "darkvision",
                "source": {
                    "value": ""
                },
                "traits": {
                    "custom": "",
                    "rarity": "common",
                    "value": []
                },
                "trigger": {
                    "value": ""
                },
                "weapon": {
                    "value": ""
                }
            },
            "flags": {
                "core": {
                    "sourceId": "Compendium.pf2e.bestiary-ability-glossary-srd.qCCLZhnp2HhP3Ex6"
                }
            },
            "img": "systems/pf2e/icons/actions/Passive.webp",
            "name": "Darkvision",
            "sort": 400000,
            "type": "action"
        },
        {
            "_id": "YPqH3eXv1Ux2rBDb",
            "data": {
                "actionCategory": {
                    "value": "interaction"
                },
                "actionType": {
                    "value": "passive"
                },
                "actions": {
                    "value": null
                },
                "description": {
                    "value": "<p>@Localize[PF2E.NPC.Abilities.Glossary.Lifesense]</p>"
                },
                "requirements": {
                    "value": ""
                },
                "rules": [],
                "slug": "lifesense",
                "source": {
                    "value": ""
                },
                "traits": {
                    "custom": "",
                    "rarity": "common",
                    "value": []
                },
                "trigger": {
                    "value": ""
                },
                "weapon": {
                    "value": ""
                }
            },
            "flags": {
                "core": {
                    "sourceId": "Compendium.pf2e.bestiary-ability-glossary-srd.sebk9XseMCRkDqRg"
                }
            },
            "img": "systems/pf2e/icons/actions/Passive.webp",
            "name": "Lifesense (Imprecise) 60 feet",
            "sort": 500000,
            "type": "action"
        },
        {
            "_id": "YWWsxw1woFyoUa9a",
            "data": {
                "actionCategory": {
                    "value": "defensive"
                },
                "actionType": {
                    "value": "passive"
                },
                "actions": {
                    "value": null
                },
                "description": {
                    "value": "<p>@Localize[PF2E.NPC.Abilities.Glossary.NegativeHealing]</p>"
                },
                "requirements": {
                    "value": ""
                },
                "rules": [
                    {
                        "key": "ActiveEffectLike",
                        "mode": "override",
                        "path": "data.attributes.hp.negativeHealing",
                        "value": true
                    }
                ],
                "slug": "negative-healing",
                "source": {
                    "value": ""
                },
                "traits": {
                    "custom": "",
                    "rarity": "common",
                    "value": []
                },
                "trigger": {
                    "value": ""
                },
                "weapon": {
                    "value": ""
                }
            },
            "flags": {
                "core": {
                    "sourceId": "Compendium.pf2e.bestiary-ability-glossary-srd.TTCw5NusiSSkJU1x"
                }
            },
            "img": "systems/pf2e/icons/actions/Passive.webp",
            "name": "Negative Healing",
            "sort": 600000,
            "type": "action"
        },
        {
            "_id": "I9tVwoP0Z0dV0r5j",
            "data": {
                "actionCategory": {
                    "value": "defensive"
                },
                "actionType": {
                    "value": "passive"
                },
                "actions": {
                    "value": null
                },
                "description": {
                    "value": "<p>The corrupted relic is an amulet cursed to contain a malevolent spirit. The statistics in this stat block are for the spirit when it's manifested (see Manifest). The amulet can't take any actions except Sudden Manifestation and Manifest. As long as the spirit is manifested, the amulet is immune to spells and magical abilities and uses the saves listed here.</p>\n<p>Regardless of whether the spirit is manifested, the amulet can be targeted by Strikes (AC 21, Hardness 5, BT 10). It is not incorporeal. If the amulet becomes broken, the spirit is bound within and can't Manifest, and if the amulet is destroyed, so is the spirit. Destroying the spirit frees the amulet from its curse.</p>"
                },
                "requirements": {
                    "value": ""
                },
                "rules": [],
                "slug": null,
                "source": {
                    "value": ""
                },
                "traits": {
                    "custom": "",
                    "rarity": "common",
                    "value": [
                        "curse",
                        "divine",
                        "necromancy"
                    ]
                },
                "trigger": {
                    "value": ""
                },
                "weapon": {
                    "value": ""
                }
            },
            "img": "systems/pf2e/icons/actions/Passive.webp",
            "name": "Amulet Relic",
            "sort": 700000,
            "type": "action"
        },
        {
            "_id": "pgjyNm2rRbnBKZmb",
            "data": {
                "actionCategory": {
                    "value": "defensive"
                },
                "actionType": {
                    "value": "reaction"
                },
                "actions": {
                    "value": null
                },
                "description": {
                    "value": "<p><strong>Trigger</strong> The relic detects a creature using its lifesense</p>\n<p><strong>Effect</strong> The relic Manifests. If this causes an encounter to begin, the relic gains a +4 status bonus to its initiative roll.</p>"
                },
                "requirements": {
                    "value": ""
                },
                "rules": [],
                "slug": null,
                "source": {
                    "value": ""
                },
                "traits": {
                    "custom": "",
                    "rarity": "common",
                    "value": []
                },
                "trigger": {
                    "value": ""
                },
                "weapon": {
                    "value": ""
                }
            },
            "img": "systems/pf2e/icons/actions/Reaction.webp",
            "name": "Sudden Manifestation",
            "sort": 800000,
            "type": "action"
        },
        {
            "_id": "56iLpxxqpM1gYATc",
            "data": {
                "actionCategory": {
                    "value": "offensive"
                },
                "actionType": {
                    "value": "action"
                },
                "actions": {
                    "value": 2
                },
                "description": {
                    "value": "<p>The spirit targets a creature it can see within 30 feet, dealing to it [[/r {4d6}[negative]]]{4d6 negative damage} (@Check[type:fortitude|dc:20|basic:true] save).</p>\n<p>A creature with negative healing instead regains [[/r {4d6}[healing]]]{4d6 Hit Points} and is then temporarily immune for 10 minutes.</p>"
                },
                "requirements": {
                    "value": ""
                },
                "rules": [],
                "slug": null,
                "source": {
                    "value": ""
                },
                "traits": {
                    "custom": "",
                    "rarity": "common",
                    "value": [
                        "concentrate",
                        "divine",
                        "necromancy",
                        "negative"
                    ]
                },
                "trigger": {
                    "value": ""
                },
                "weapon": {
                    "value": ""
                }
            },
            "img": "systems/pf2e/icons/actions/TwoActions.webp",
            "name": "Death Gaze",
            "sort": 900000,
            "type": "action"
        },
        {
            "_id": "DYPC5uZCfiJo895S",
            "data": {
                "actionCategory": {
                    "value": "offensive"
                },
                "actionType": {
                    "value": "action"
                },
                "actions": {
                    "value": 1
                },
                "description": {
                    "value": "<p><strong>Requirements</strong> The relic detects at least one creature using its lifesense</p>\n<p><strong>Effect</strong> The spirit within the relic manifests in an open space within 10 feet of the amulet. When it does, the relic teleports around its neck. The spirit remains in its manifested state until it no longer senses any living creatures within range of its lifesense.</p>"
                },
                "requirements": {
                    "value": ""
                },
                "rules": [],
                "slug": null,
                "source": {
                    "value": ""
                },
                "traits": {
                    "custom": "",
                    "rarity": "common",
                    "value": [
                        "divine",
                        "necromancy"
                    ]
                },
                "trigger": {
                    "value": ""
                },
                "weapon": {
                    "value": ""
                }
            },
            "img": "systems/pf2e/icons/actions/OneAction.webp",
            "name": "Manifest",
            "sort": 1000000,
            "type": "action"
        },
        {
            "_id": "NylQJJ7gGXRGTW2Q",
            "data": {
                "description": {
                    "value": ""
                },
                "mod": {
                    "value": 11
                },
                "proficient": {
                    "value": 0
                },
                "rules": [],
                "slug": null,
                "source": {
                    "value": ""
                },
                "traits": {
                    "custom": "",
                    "rarity": "common",
                    "value": []
                }
            },
            "img": "systems/pf2e/icons/default-icons/lore.svg",
            "name": "Acrobatics",
            "sort": 1100000,
            "type": "lore"
        },
        {
            "_id": "BmVeGFLQy5gzbrZx",
            "data": {
                "description": {
                    "value": ""
                },
                "mod": {
                    "value": 10
                },
                "proficient": {
                    "value": 0
                },
                "rules": [],
                "slug": null,
                "source": {
                    "value": ""
                },
                "traits": {
                    "custom": "",
                    "rarity": "common",
                    "value": []
                }
            },
            "img": "systems/pf2e/icons/default-icons/lore.svg",
            "name": "Intimidation",
            "sort": 1200000,
            "type": "lore"
        },
        {
            "_id": "HXozieTR226fAKQH",
            "data": {
                "description": {
                    "value": ""
                },
                "mod": {
                    "value": 11
                },
                "proficient": {
                    "value": 0
                },
                "rules": [],
                "slug": null,
                "source": {
                    "value": ""
                },
                "traits": {
                    "custom": "",
                    "rarity": "common",
                    "value": []
                }
            },
            "img": "systems/pf2e/icons/default-icons/lore.svg",
            "name": "Stealth",
            "sort": 1300000,
            "type": "lore"
        }
    ],
    "name": "Corrupted Relic",
    "token": {
        "disposition": -1,
        "height": 1,
        "img": "systems/pf2e/icons/default-icons/npc.svg",
        "name": "Corrupted Relic",
        "width": 1
    },
    "type": "npc"
}
