{
    "_id": "qm0YqO9ik2U2Gjdx",
    "data": {
        "abilities": {
            "cha": {
                "mod": 3
            },
            "con": {
                "mod": 3
            },
            "dex": {
                "mod": 5
            },
            "int": {
                "mod": 5
            },
            "str": {
                "mod": 7
            },
            "wis": {
                "mod": 6
            }
        },
        "attributes": {
            "ac": {
                "details": "",
                "value": 29
            },
            "allSaves": {
                "value": null
            },
            "hp": {
                "details": "",
                "max": 190,
                "temp": 0,
                "value": 190
            },
            "initiative": {
                "ability": "perception"
            },
            "perception": {
                "value": 22
            },
            "speed": {
                "otherSpeeds": [],
                "value": "25"
            }
        },
        "details": {
            "alignment": {
                "value": "CE"
            },
            "blurb": "",
            "creatureType": "",
            "level": {
                "value": 10
            },
            "privateNotes": "",
            "publicNotes": "<p>Foul creatures who appear as wizened old women, hags share little in common with the humanoids they terrorize. They are hateful entities whose greatest joy lies in the corruption and ultimate destruction of anything good and virtuous. Whatever power created the first hags is lost to time, but numerous hag varieties have arisen over the ages, each with their own powers and abilities to spread pain and suffering.</p>\n<hr />\n<p>Moon hags are powerful soothsayers who dwell in places where souls receive their final judgment. These vile creatures possess knowledge of-and perhaps some power over-the portals between the lands of the living and the dead, and innocent mortals sometimes seek them out for this reason. Moon hags use their knowledge to sow discord and place seeds of doubt in those who unwittingly seek their aid. Beings of great power can intimidate them into sharing the truth of what they know, but the cunning hags always try to hide some important piece of information or word things in such a way that anyone acting on their divinations still find their plans falling into ruin.</p>",
            "source": {
                "value": "Pathfinder Bestiary 3"
            }
        },
        "resources": {
            "focus": {
                "max": 0,
                "value": 0
            }
        },
        "saves": {
            "fortitude": {
                "saveDetail": "",
                "value": 17
            },
            "reflex": {
                "saveDetail": "",
                "value": 19
            },
            "will": {
                "saveDetail": "",
                "value": 22
            }
        },
        "traits": {
            "attitude": {
                "value": "hostile"
            },
            "ci": [],
            "di": {
                "custom": "",
                "value": [
                    "confused"
                ]
            },
            "dr": [],
            "dv": [
                {
                    "exceptions": "",
                    "label": "Cold Iron",
                    "type": "cold iron",
                    "value": 10
                }
            ],
            "languages": {
                "custom": "",
                "selected": [],
                "value": [
                    "aklo",
                    "common",
                    "jotun"
                ]
            },
            "rarity": "uncommon",
            "senses": {
                "value": "darkvision"
            },
            "size": {
                "value": "med"
            },
            "traits": {
                "custom": "",
                "value": [
                    "fiend",
                    "hag",
                    "humanoid"
                ]
            }
        }
    },
    "img": "systems/pf2e/icons/default-icons/npc.svg",
    "items": [
        {
            "_id": "F73Q3Vq6b3MjGrcF",
            "data": {
                "autoHeightenLevel": {
                    "value": null
                },
                "description": {
                    "value": ""
                },
                "displayLevels": {},
                "prepared": {
                    "flexible": false,
                    "value": "innate"
                },
                "proficiency": {
                    "value": 0
                },
                "rules": [],
                "showSlotlessLevels": {
                    "value": true
                },
                "showUnpreparedSpells": {
                    "value": false
                },
                "slots": {
                    "slot0": {
                        "max": 0,
                        "prepared": {},
                        "value": 0
                    },
                    "slot1": {
                        "max": 0,
                        "prepared": {},
                        "value": 0
                    },
                    "slot10": {
                        "max": 0,
                        "prepared": {},
                        "value": 0
                    },
                    "slot11": {
                        "max": 0,
                        "prepared": {},
                        "value": 0
                    },
                    "slot2": {
                        "max": 0,
                        "prepared": {},
                        "value": 0
                    },
                    "slot3": {
                        "max": 0,
                        "prepared": {},
                        "value": 0
                    },
                    "slot4": {
                        "max": 0,
                        "prepared": {},
                        "value": 0
                    },
                    "slot5": {
                        "max": 6,
                        "prepared": {
                            "0": {
                                "id": "SFFazu6OJr5HmLNJ"
                            },
                            "2": {
                                "id": "83hMNcxKos3GuLd7"
                            },
                            "3": {
                                "id": "Dm3LYY7WcsAnFjW3"
                            },
                            "4": {
                                "id": "Dm3LYY7WcsAnFjW3"
                            },
                            "5": {
                                "id": "Dm3LYY7WcsAnFjW3"
                            },
                            "6": {
                                "id": "DsiihKNbRNJyXPbK"
                            }
                        },
                        "value": 6
                    },
                    "slot6": {
                        "max": 0,
                        "prepared": {},
                        "value": 0
                    },
                    "slot7": {
                        "max": 0,
                        "prepared": {},
                        "value": 0
                    },
                    "slot8": {
                        "max": 0,
                        "prepared": {},
                        "value": 0
                    },
                    "slot9": {
                        "max": 0,
                        "prepared": {},
                        "value": 0
                    }
                },
                "slug": null,
                "source": {
                    "value": ""
                },
                "spelldc": {
                    "dc": 29,
                    "item": 0,
                    "mod": 0,
                    "value": 19
                },
                "tradition": {
                    "value": "divine"
                },
                "traits": {
                    "custom": "",
                    "rarity": "common",
                    "value": []
                }
            },
            "img": "systems/pf2e/icons/default-icons/spellcastingEntry.svg",
            "name": "Occult Innate Spells",
            "sort": 100000,
            "type": "spellcastingEntry"
        },
        {
            "_id": "SFFazu6OJr5HmLNJ",
            "data": {
                "ability": {
                    "value": ""
                },
                "area": {
                    "areaType": "",
                    "value": null
                },
                "areasize": {
                    "value": ""
                },
                "category": {
                    "value": "spell"
                },
                "components": {
                    "focus": false,
                    "material": false,
                    "somatic": true,
                    "verbal": true
                },
                "cost": {
                    "value": ""
                },
                "damage": {
                    "value": {}
                },
                "description": {
                    "value": "<p>You befuddle your target with strange impulses, causing it to act randomly. The effects are determined by the target's Will save. You can Dismiss the spell.</p>\n<hr />\n<p><strong>Critical Success</strong> The target is unaffected.</p>\n<p><strong>Success</strong> The target babbles incoherently and is @Compendium[pf2e.conditionitems.Stunned]{Stunned 1}.</p>\n<p><strong>Failure</strong> The target is @Compendium[pf2e.conditionitems.Confused]{Confused} for 1 minute. It can attempt a new save at the end of each of its turns to end the confusion.</p>\n<p><strong>Critical Failure</strong> The target is Confused for 1 minute, with no save to end early.</p>\n<hr />\n<p><strong>Heightened (8th)</strong> You can target up to 10 creatures.</p>"
                },
                "duration": {
                    "value": "1 minute"
                },
                "hasCounteractCheck": {
                    "value": false
                },
                "level": {
                    "value": 5
                },
                "location": {
                    "value": "F73Q3Vq6b3MjGrcF"
                },
                "materials": {
                    "value": ""
                },
                "prepared": {
                    "value": ""
                },
                "primarycheck": {
                    "value": ""
                },
                "range": {
                    "value": "30 feet"
                },
                "rules": [],
                "save": {
                    "basic": "",
                    "value": "will"
                },
                "school": {
                    "value": "enchantment"
                },
                "secondarycasters": {
                    "value": ""
                },
                "secondarycheck": {
                    "value": ""
                },
                "slug": "confusion",
                "source": {
                    "value": ""
                },
                "spellType": {
                    "value": "save"
                },
                "sustained": {
                    "value": false
                },
                "target": {
                    "value": "1 creature"
                },
                "time": {
                    "value": "2"
                },
                "traditions": {
                    "value": [
                        "arcane",
                        "occult"
                    ]
                },
                "traits": {
                    "custom": "",
                    "rarity": "common",
                    "value": [
                        "emotion",
                        "mental"
                    ]
                }
            },
            "flags": {
                "core": {
                    "sourceId": "Compendium.pf2e.spells-srd.LiGbewa9pO0yjbsY"
                }
            },
            "img": "systems/pf2e/icons/spells/confusion.webp",
            "name": "Confusion",
            "sort": 200000,
            "type": "spell"
        },
        {
            "_id": "QkDS6lLH8gR5K8yy",
            "data": {
                "ability": {
                    "value": ""
                },
                "area": {
                    "areaType": "",
                    "value": null
                },
                "areasize": {
                    "value": ""
                },
                "category": {
                    "value": "spell"
                },
                "components": {
                    "focus": false,
                    "material": false,
                    "somatic": true,
                    "verbal": true
                },
                "cost": {
                    "value": ""
                },
                "damage": {
                    "value": {}
                },
                "description": {
                    "value": "<p>You plant fear in the target; it must attempt a Will save.</p>\n<hr />\n<p><strong>Critical Success</strong> The target is unaffected.</p>\n<p><strong>Success</strong> The target is @Compendium[pf2e.conditionitems.Frightened]{Frightened 1}.</p>\n<p><strong>Failure</strong> The target is @Compendium[pf2e.conditionitems.Frightened]{Frightened 2}.</p>\n<p><strong>Critical Failure</strong> The target is @Compendium[pf2e.conditionitems.Frightened]{Frightened 3} and @Compendium[pf2e.conditionitems.Fleeing]{Fleeing} for 1 round.</p>\n<hr />\n<p><strong>Heightened (3rd)</strong> You can target up to five creatures.</p>"
                },
                "duration": {
                    "value": "varies"
                },
                "hasCounteractCheck": {
                    "value": false
                },
                "level": {
                    "value": 5
                },
                "location": {
                    "value": "F73Q3Vq6b3MjGrcF"
                },
                "materials": {
                    "value": ""
                },
                "prepared": {
                    "value": ""
                },
                "primarycheck": {
                    "value": ""
                },
                "range": {
                    "value": "30 feet"
                },
                "rules": [],
                "save": {
                    "basic": "",
                    "value": "will"
                },
                "school": {
                    "value": "enchantment"
                },
                "secondarycasters": {
                    "value": ""
                },
                "secondarycheck": {
                    "value": ""
                },
                "slug": "fear",
                "source": {
                    "value": ""
                },
                "spellType": {
                    "value": "save"
                },
                "sustained": {
                    "value": false
                },
                "target": {
                    "value": "1 creature"
                },
                "time": {
                    "value": "2"
                },
                "traditions": {
                    "value": [
                        "arcane",
                        "divine",
                        "occult",
                        "primal"
                    ]
                },
                "traits": {
                    "custom": "",
                    "rarity": "common",
                    "value": [
                        "emotion",
                        "fear",
                        "mental"
                    ]
                }
            },
            "flags": {
                "core": {
                    "sourceId": "Compendium.pf2e.spells-srd.4koZzrnMXhhosn0D"
                }
            },
            "img": "systems/pf2e/icons/spells/fear.webp",
            "name": "Fear (At Will)",
            "sort": 300000,
            "type": "spell"
        },
        {
            "_id": "83hMNcxKos3GuLd7",
            "data": {
                "ability": {
                    "value": ""
                },
                "area": {
                    "areaType": "",
                    "value": null
                },
                "areasize": {
                    "value": ""
                },
                "category": {
                    "value": "spell"
                },
                "components": {
                    "focus": false,
                    "material": true,
                    "somatic": true,
                    "verbal": true
                },
                "cost": {
                    "value": ""
                },
                "damage": {
                    "value": {}
                },
                "description": {
                    "value": "<p>You peek into the future. Choose a particular goal, event, or activity that will occur within 1 week. You learn a cryptic clue or piece of advice that could help with the chosen event, often in the form of a rhyme or omen.</p>"
                },
                "duration": {
                    "value": ""
                },
                "hasCounteractCheck": {
                    "value": false
                },
                "level": {
                    "value": 5
                },
                "location": {
                    "value": "F73Q3Vq6b3MjGrcF"
                },
                "materials": {
                    "value": ""
                },
                "prepared": {
                    "value": ""
                },
                "primarycheck": {
                    "value": ""
                },
                "range": {
                    "value": ""
                },
                "rules": [],
                "save": {
                    "basic": "",
                    "value": ""
                },
                "school": {
                    "value": "divination"
                },
                "secondarycasters": {
                    "value": ""
                },
                "secondarycheck": {
                    "value": ""
                },
                "slug": "read-omens",
                "source": {
                    "value": ""
                },
                "spellType": {
                    "value": "utility"
                },
                "sustained": {
                    "value": false
                },
                "target": {
                    "value": ""
                },
                "time": {
                    "value": "10 minutes"
                },
                "traditions": {
                    "value": [
                        "divine",
                        "occult"
                    ]
                },
                "traits": {
                    "custom": "",
                    "rarity": "uncommon",
                    "value": [
                        "prediction"
                    ]
                }
            },
            "flags": {
                "core": {
                    "sourceId": "Compendium.pf2e.spells-srd.pkcOby5prOausy1k"
                }
            },
            "img": "systems/pf2e/icons/spells/read-omens.webp",
            "name": "Read Omens",
            "sort": 400000,
            "type": "spell"
        },
        {
            "_id": "Dm3LYY7WcsAnFjW3",
            "data": {
                "ability": {
                    "value": ""
                },
                "area": {
                    "areaType": "",
                    "value": null
                },
                "areasize": {
                    "value": ""
                },
                "category": {
                    "value": "spell"
                },
                "components": {
                    "focus": false,
                    "material": true,
                    "somatic": true,
                    "verbal": true
                },
                "cost": {
                    "value": ""
                },
                "damage": {
                    "value": {}
                },
                "description": {
                    "value": "<p>You grant the target corpse a semblance of life, which it uses to speak the answers to three questions posed to it. This spell calls on the physical body's latent memories rather than summoning back the deceased's spirit, so the corpse must be mostly intact for the spell to function. The more damage the corpse has taken, the more inaccurate or patchwork its answers are, and it must have a throat and mouth to speak at all. If anyone has previously cast this spell on the corpse in the last week, the spell automatically fails. The corpse can attempt a Will save to resist answering the questions using the statistics of the original creature at its time of death, with the following effects.</p>\n<hr /><strong>Critical Success</strong> The target can lie or refuse to answer your questions, and the target's spirit haunts you for 24 hours, bothering you and causing you to be unable to gain any rest for that time.\n<p><strong>Success</strong> The target can provide false information or refuse to answer your questions.</p>\n<p><strong>Failure</strong> The target must answer truthfully, but its answers can be brief, cryptic, and repetitive. It can still mislead you or attempt to stall so that the spell's duration runs out before you can ask all your questions.</p>\n<p><strong>Critical Failure</strong> As failure, but the target's answers are more direct and less repetitive, though still cryptic. It takes a -2 status penalty to Deception checks to deceive or mislead you.</p>"
                },
                "duration": {
                    "value": "10 minutes"
                },
                "hasCounteractCheck": {
                    "value": false
                },
                "level": {
                    "value": 5
                },
                "location": {
                    "uses": {
                        "max": 3,
                        "value": 3
                    },
                    "value": "F73Q3Vq6b3MjGrcF"
                },
                "materials": {
                    "value": ""
                },
                "prepared": {
                    "value": ""
                },
                "primarycheck": {
                    "value": ""
                },
                "range": {
                    "value": "touch"
                },
                "rules": [],
                "save": {
                    "basic": "",
                    "value": ""
                },
                "school": {
                    "value": "necromancy"
                },
                "secondarycasters": {
                    "value": ""
                },
                "secondarycheck": {
                    "value": ""
                },
                "slug": "talking-corpse",
                "source": {
                    "value": ""
                },
                "spellType": {
                    "value": "save"
                },
                "sustained": {
                    "value": false
                },
                "target": {
                    "value": "1 corpse"
                },
                "time": {
                    "value": "10 minutes"
                },
                "traditions": {
                    "value": [
                        "divine",
                        "occult"
                    ]
                },
                "traits": {
                    "custom": "",
                    "rarity": "uncommon",
                    "value": []
                }
            },
            "flags": {
                "core": {
                    "sourceId": "Compendium.pf2e.spells-srd.FM3SmEW8N1FCRjqt"
                }
            },
            "img": "systems/pf2e/icons/spells/talking-corpse.webp",
            "name": "Talking Corpse",
            "sort": 500000,
            "type": "spell"
        },
        {
            "_id": "DsiihKNbRNJyXPbK",
            "data": {
                "ability": {
                    "value": ""
                },
                "area": {
                    "areaType": "",
                    "value": null
                },
                "areasize": {
                    "value": ""
                },
                "category": {
                    "value": "spell"
                },
                "components": {
                    "focus": false,
                    "material": false,
                    "somatic": true,
                    "verbal": true
                },
                "cost": {
                    "value": ""
                },
                "damage": {
                    "value": {}
                },
                "description": {
                    "value": "<p>The target can understand all words regardless of language and also speak the languages of other creatures. When in a mixed group of creatures, each time the target speaks, it can choose a creature and speak in a language that creature understands, even if the target doesn't know what language that is.</p>\n<hr />\n<p><strong>Heightened (7th)</strong> The duration is 8 hours.</p>"
                },
                "duration": {
                    "value": "1 hour"
                },
                "hasCounteractCheck": {
                    "value": false
                },
                "level": {
                    "value": 5
                },
                "location": {
                    "value": "F73Q3Vq6b3MjGrcF"
                },
                "materials": {
                    "value": ""
                },
                "prepared": {
                    "value": ""
                },
                "primarycheck": {
                    "value": ""
                },
                "range": {
                    "value": "touch"
                },
                "rules": [],
                "save": {
                    "basic": "",
                    "value": ""
                },
                "school": {
                    "value": "divination"
                },
                "secondarycasters": {
                    "value": ""
                },
                "secondarycheck": {
                    "value": ""
                },
                "slug": "tongues",
                "source": {
                    "value": ""
                },
                "spellType": {
                    "value": "utility"
                },
                "sustained": {
                    "value": false
                },
                "target": {
                    "value": "1 creature"
                },
                "time": {
                    "value": "2"
                },
                "traditions": {
                    "value": [
                        "arcane",
                        "divine",
                        "occult"
                    ]
                },
                "traits": {
                    "custom": "",
                    "rarity": "uncommon",
                    "value": []
                }
            },
            "flags": {
                "core": {
                    "sourceId": "Compendium.pf2e.spells-srd.SwUiVavHKMWG7t5K"
                }
            },
            "img": "systems/pf2e/icons/spells/tongues.webp",
            "name": "Tongues",
            "sort": 600000,
            "type": "spell"
        },
        {
            "_id": "N0n5SsuqfJHWLi1E",
            "data": {
                "attack": {
                    "value": ""
                },
                "attackEffects": {
                    "custom": "",
                    "value": []
                },
                "bonus": {
                    "value": 23
                },
                "damageRolls": {
                    "0": {
                        "damage": "2d12+10",
                        "damageType": "slashing"
                    }
                },
                "description": {
                    "value": ""
                },
                "rules": [],
                "slug": null,
                "source": {
                    "value": ""
                },
                "traits": {
                    "custom": "",
                    "rarity": "common",
                    "value": [
                        "agile",
                        "magical"
                    ]
                },
                "weaponType": {
                    "value": "melee"
                }
            },
            "img": "systems/pf2e/icons/default-icons/melee.svg",
            "name": "Claw",
            "sort": 700000,
            "type": "melee"
        },
        {
            "_id": "2LhHLzXgOoyNmS7p",
            "data": {
                "actionCategory": {
                    "value": "interaction"
                },
                "actionType": {
                    "value": "passive"
                },
                "actions": {
                    "value": null
                },
                "description": {
                    "value": "<p>@Localize[PF2E.NPC.Abilities.Glossary.Darkvision]</p>"
                },
                "requirements": {
                    "value": ""
                },
                "rules": [],
                "slug": "darkvision",
                "source": {
                    "value": ""
                },
                "traits": {
                    "custom": "",
                    "rarity": "common",
                    "value": []
                },
                "trigger": {
                    "value": ""
                },
                "weapon": {
                    "value": ""
                }
            },
            "flags": {
                "core": {
                    "sourceId": "Compendium.pf2e.bestiary-ability-glossary-srd.qCCLZhnp2HhP3Ex6"
                }
            },
            "img": "systems/pf2e/icons/actions/Passive.webp",
            "name": "Darkvision",
            "sort": 800000,
            "type": "action"
        },
        {
            "_id": "AtSxBEaHS4ljnAyv",
            "data": {
                "actionCategory": {
                    "value": "interaction"
                },
                "actionType": {
                    "value": "passive"
                },
                "actions": {
                    "value": null
                },
                "description": {
                    "value": "<p>A blood hag adds <em>@Compendium[pf2e.spells-srd.Plane Shift]{Plane Shift}</em>, <em>@Compendium[pf2e.spells-srd.Scrying]{Scrying}</em>, and <em>@Compendium[pf2e.spells-srd.Spirit Blast]{Spirit Blast}</em> to her coven's spells.</p>\n<hr />\n<p>@Localize[PF2E.NPC.Abilities.Glossary.Coven]</p>"
                },
                "requirements": {
                    "value": ""
                },
                "rules": [],
                "slug": "coven",
                "source": {
                    "value": ""
                },
                "traits": {
                    "custom": "",
                    "rarity": "common",
                    "value": [
                        "divination",
                        "mental",
                        "occult"
                    ]
                },
                "trigger": {
                    "value": ""
                },
                "weapon": {
                    "value": ""
                }
            },
            "flags": {
                "core": {
                    "sourceId": "Compendium.pf2e.bestiary-ability-glossary-srd.52CdldlWMiVTZk1F"
                }
            },
            "img": "systems/pf2e/icons/actions/Passive.webp",
            "name": "Coven",
            "sort": 900000,
            "type": "action"
        },
        {
            "_id": "jLWpzWTqyo83F7Uy",
            "data": {
                "actionCategory": {
                    "value": "interaction"
                },
                "actionType": {
                    "value": "passive"
                },
                "actions": {
                    "value": null
                },
                "description": {
                    "value": "<p>@Localize[PF2E.NPC.Abilities.Glossary.AtWillSpells]</p>"
                },
                "requirements": {
                    "value": ""
                },
                "rules": [],
                "slug": "at-will-spells",
                "source": {
                    "value": ""
                },
                "traits": {
                    "custom": "",
                    "rarity": "common",
                    "value": []
                },
                "trigger": {
                    "value": ""
                },
                "weapon": {
                    "value": ""
                }
            },
            "flags": {
                "core": {
                    "sourceId": "Compendium.pf2e.bestiary-ability-glossary-srd.2YRDYVnC1eljaXKK"
                }
            },
            "img": "systems/pf2e/icons/actions/Passive.webp",
            "name": "At-Will Spells",
            "sort": 1000000,
            "type": "action"
        },
        {
            "_id": "Ti3e0CkEDJSOuOJy",
            "data": {
                "actionCategory": {
                    "value": "defensive"
                },
                "actionType": {
                    "value": "reaction"
                },
                "actions": {
                    "value": null
                },
                "description": {
                    "value": "<p>@Localize[PF2E.NPC.Abilities.Glossary.Ferocity]</p>"
                },
                "requirements": {
                    "value": ""
                },
                "rules": [],
                "slug": "ferocity",
                "source": {
                    "value": ""
                },
                "traits": {
                    "custom": "",
                    "rarity": "common",
                    "value": []
                },
                "trigger": {
                    "value": ""
                },
                "weapon": {
                    "value": ""
                }
            },
            "flags": {
                "core": {
                    "sourceId": "Compendium.pf2e.bestiary-ability-glossary-srd.N1kstYbHScxgUQtN"
                }
            },
            "img": "systems/pf2e/icons/actions/Reaction.webp",
            "name": "Ferocity",
            "sort": 1100000,
            "type": "action"
        },
        {
            "_id": "H3pa17KySBkdeqib",
            "data": {
                "actionCategory": {
                    "value": "defensive"
                },
                "actionType": {
                    "value": "passive"
                },
                "actions": {
                    "value": null
                },
                "description": {
                    "value": "<p>A moon hag in an area illuminated by moonlight gains a +2 status bonus to AC and initiative rolls.</p>\n<p>In the light of a full moon, she is @Compendium[pf2e.conditionitems.Quickened]{Quickened}, and can use the extra action only to Stride or Strike.</p>"
                },
                "requirements": {
                    "value": ""
                },
                "rules": [],
                "slug": null,
                "source": {
                    "value": ""
                },
                "traits": {
                    "custom": "",
                    "rarity": "common",
                    "value": []
                },
                "trigger": {
                    "value": ""
                },
                "weapon": {
                    "value": ""
                }
            },
            "img": "systems/pf2e/icons/actions/Passive.webp",
            "name": "Moonlight's Kiss",
            "sort": 1200000,
            "type": "action"
        },
        {
            "_id": "yBpXyahw41IRnTwr",
            "data": {
                "actionCategory": {
                    "value": "offensive"
                },
                "actionType": {
                    "value": "action"
                },
                "actions": {
                    "value": 1
                },
                "description": {
                    "value": "<p><strong>Frequency</strong> once per round</p>\n<p><strong>Effect</strong> The moon hag howls a series of dreadful, apocalyptic predictions at a single creature within 30 feet, shattering its perceptions of reality.</p>\n<p>The target must succeed at a @Check[type:will|dc:29] save or become @Compendium[pf2e.conditionitems.Stupefied]{Stupefied 2} (@Compendium[pf2e.conditionitems.Stupefied]{Stupefied 3} on a critical failure); regardless of the outcome, the creature is then temporarily immune for 24 hours. A creature that can see the moon takes a -2 circumstance penalty to saving throws against Dreadful Prediction.</p>\n<p>The stupefied condition from Dreadful Prediction persists until the curse is removed.</p>"
                },
                "requirements": {
                    "value": ""
                },
                "rules": [],
                "slug": null,
                "source": {
                    "value": ""
                },
                "traits": {
                    "custom": "",
                    "rarity": "common",
                    "value": [
                        "curse",
                        "enchantment",
                        "occult",
                        "mental"
                    ]
                },
                "trigger": {
                    "value": ""
                },
                "weapon": {
                    "value": ""
                }
            },
            "img": "systems/pf2e/icons/actions/OneAction.webp",
            "name": "Dreadful Prediction",
            "sort": 1300000,
            "type": "action"
        },
        {
            "_id": "iVuxv6GFqvanqgOO",
            "data": {
                "actionCategory": {
                    "value": "offensive"
                },
                "actionType": {
                    "value": "action"
                },
                "actions": {
                    "value": 1
                },
                "description": {
                    "value": "<p>Claw</p>\n<hr />\n<p>@Localize[PF2E.NPC.Abilities.Glossary.Rend]</p>"
                },
                "requirements": {
                    "value": ""
                },
                "rules": [],
                "slug": "rend",
                "source": {
                    "value": ""
                },
                "traits": {
                    "custom": "",
                    "rarity": "common",
                    "value": []
                },
                "trigger": {
                    "value": ""
                },
                "weapon": {
                    "value": ""
                }
            },
            "flags": {
                "core": {
                    "sourceId": "Compendium.pf2e.bestiary-ability-glossary-srd.3JOi2cMcGhT3eze1"
                }
            },
            "img": "systems/pf2e/icons/actions/OneAction.webp",
            "name": "Rend (Claw)",
            "sort": 1400000,
            "type": "action"
        },
        {
            "_id": "5h9QlGG2MnMtfSRm",
            "data": {
                "description": {
                    "value": ""
                },
                "mod": {
                    "value": 21
                },
                "proficient": {
                    "value": 0
                },
                "rules": [],
                "slug": null,
                "source": {
                    "value": ""
                },
                "traits": {
                    "custom": "",
                    "rarity": "common",
                    "value": []
                }
            },
            "img": "systems/pf2e/icons/default-icons/lore.svg",
            "name": "Boneyard Lore",
            "sort": 1500000,
            "type": "lore"
        },
        {
            "_id": "c12oHDBa1U7Qrs2X",
            "data": {
                "description": {
                    "value": ""
                },
                "mod": {
                    "value": 19
                },
                "proficient": {
                    "value": 0
                },
                "rules": [],
                "slug": null,
                "source": {
                    "value": ""
                },
                "traits": {
                    "custom": "",
                    "rarity": "common",
                    "value": []
                }
            },
            "img": "systems/pf2e/icons/default-icons/lore.svg",
            "name": "Deception",
            "sort": 1600000,
            "type": "lore"
        },
        {
            "_id": "zVQaxyEvYKANmLED",
            "data": {
                "description": {
                    "value": ""
                },
                "mod": {
                    "value": 17
                },
                "proficient": {
                    "value": 0
                },
                "rules": [],
                "slug": null,
                "source": {
                    "value": ""
                },
                "traits": {
                    "custom": "",
                    "rarity": "common",
                    "value": []
                }
            },
            "img": "systems/pf2e/icons/default-icons/lore.svg",
            "name": "Intimidation",
            "sort": 1700000,
            "type": "lore"
        },
        {
            "_id": "7iHMlqiAP98smYfy",
            "data": {
                "description": {
                    "value": ""
                },
                "mod": {
                    "value": 19
                },
                "proficient": {
                    "value": 0
                },
                "rules": [],
                "slug": null,
                "source": {
                    "value": ""
                },
                "traits": {
                    "custom": "",
                    "rarity": "common",
                    "value": []
                }
            },
            "img": "systems/pf2e/icons/default-icons/lore.svg",
            "name": "Occultism",
            "sort": 1800000,
            "type": "lore"
        },
        {
            "_id": "ohaHNyz0Y1R7efy7",
            "data": {
                "description": {
                    "value": ""
                },
                "mod": {
                    "value": 22
                },
                "proficient": {
                    "value": 0
                },
                "rules": [],
                "slug": null,
                "source": {
                    "value": ""
                },
                "traits": {
                    "custom": "",
                    "rarity": "common",
                    "value": []
                }
            },
            "img": "systems/pf2e/icons/default-icons/lore.svg",
            "name": "Religion",
            "sort": 1900000,
            "type": "lore"
        }
    ],
    "name": "Moon Hag",
    "token": {
        "disposition": -1,
        "height": 1,
        "img": "systems/pf2e/icons/default-icons/npc.svg",
        "name": "Moon Hag",
        "width": 1
    },
    "type": "npc"
}
