{
    "_id": "AkkmaixGqzw75h7W",
    "data": {
        "actionCategory": {
            "value": "interaction"
        },
        "actionType": {
            "value": "passive"
        },
        "actions": {
            "value": null
        },
        "deathNote": false,
        "description": {
            "value": "<p>When the graveknight rolls initiative, they roll twice and take the better result. They're @Compendium[pf2e.conditionitems.Quickened]{Quickened} during their first round after rolling initiative and can use this extra action to Step, Stride, or Strike.</p>"
        },
        "requirements": {
            "value": ""
        },
        "rules": [
            {
                "key": "Note",
                "selector": "initiative",
                "text": "<p><strong>{item|name}</strong></p>{item|data.description.value}"
            },
            {
                "keep": "higher",
                "key": "RollTwice",
                "selector": "initiative"
            }
        ],
        "source": {
            "value": "Pathfinder Book of the Dead"
        },
        "traits": {
            "custom": "",
            "rarity": "common",
            "value": [
                "fortune"
            ]
        },
        "trigger": {
            "value": ""
        }
    },
    "img": "systems/pf2e/icons/actions/Passive.webp",
    "name": "(Graveknight) Eager for Battle",
    "type": "action"
}
