{
    "_id": "fqZhojt2M5LfSKSH",
    "data": {
        "actionCategory": {
            "value": "offensive"
        },
        "actionType": {
            "value": "free"
        },
        "actions": {
            "value": null
        },
        "description": {
            "value": "<p><strong>Frequency</strong> once per day</p>\n<p><strong>Effect</strong> The lich taps into its <em>@Compendium[pf2e.equipment-srd.Lich Soul Cage]{Soul Cage's}</em> power to cast any arcane spell up to the highest level the lich can cast, even if the spell being cast is not one of the lich's prepared spells. The lich's <em>soul cage</em> doesn't need to be present for the lich to use this ability.</p>"
        },
        "requirements": {
            "value": ""
        },
        "rules": [],
        "source": {
            "value": "Pathfinder Bestiary"
        },
        "traits": {
            "custom": "",
            "rarity": "common",
            "value": []
        },
        "trigger": {
            "value": ""
        },
        "weapon": {
            "value": ""
        }
    },
    "img": "systems/pf2e/icons/actions/FreeAction.webp",
    "name": "(Lich) Drain Soul Cage",
    "type": "action"
}
