{
    "_id": "TIJ7r9lXvNYSIMLI",
    "data": {
        "actionCategory": {
            "value": "offensive"
        },
        "actionType": {
            "value": "passive"
        },
        "actions": {
            "value": null
        },
        "deathNote": false,
        "description": {
            "value": "<p>The siabrae grows a pair of stony antlers or horns from its head, which give it an antler attack that deals [[/r {1d6+2}[bludgeoning]]]{1d6+2 bludgeoning damage} for every 3 levels and inflicts stony shards. If the siabrae wishes, they can keep these antlers while polymorphed, using the normal statistics of the stone antler attack.</p>"
        },
        "requirements": {
            "value": ""
        },
        "rules": [],
        "source": {
            "value": "Pathfinder Book of the Dead"
        },
        "traits": {
            "custom": "",
            "rarity": "common",
            "value": []
        },
        "trigger": {
            "value": ""
        }
    },
    "img": "systems/pf2e/icons/actions/Passive.webp",
    "name": "(Siabrae) Stone Antlers",
    "type": "action"
}
