{
    "_id": "1AnBJbwfdlvzA7SK",
    "data": {
        "actionCategory": {
            "value": "offensive"
        },
        "actionType": {
            "value": "passive"
        },
        "actions": {
            "value": null
        },
        "deathNote": false,
        "description": {
            "value": "<p>When the jiang-shi @Compendium[pf2e.actionspf2e.Leap]{Leaps}, they can add 10 feet to the horizontal and/or vertical distance they move without affecting the Leap DC. The jiang-shi can stand and walk on water and other solid or liquid surfaces that wouldn't normally support their weight.</p>"
        },
        "requirements": {
            "value": ""
        },
        "rules": [],
        "source": {
            "value": "Pathfinder Book of the Dead"
        },
        "traits": {
            "custom": "",
            "rarity": "common",
            "value": []
        },
        "trigger": {
            "value": ""
        }
    },
    "img": "systems/pf2e/icons/actions/Passive.webp",
    "name": "(Vampire, Jiang-Shi, Minister) Distant Steps",
    "type": "action"
}
