{
    "_id": "AAkT7x3eYV1hn1I6",
    "data": {
        "abilities": {
            "cha": {
                "mod": 2
            },
            "con": {
                "mod": 4
            },
            "dex": {
                "mod": 2
            },
            "int": {
                "mod": -2
            },
            "str": {
                "mod": 6
            },
            "wis": {
                "mod": 2
            }
        },
        "attributes": {
            "ac": {
                "details": "",
                "value": 23
            },
            "allSaves": {
                "value": ""
            },
            "hp": {
                "details": "",
                "max": 145,
                "temp": 0,
                "value": 145
            },
            "initiative": {
                "ability": "perception"
            },
            "perception": {
                "value": 13
            },
            "speed": {
                "otherSpeeds": [],
                "value": "35"
            }
        },
        "details": {
            "alignment": {
                "value": "CE"
            },
            "blurb": "",
            "creatureType": "",
            "level": {
                "value": 7
            },
            "privateNotes": "",
            "publicNotes": "<p>Corrupting magical storms and the interference of unethical gear- smiths birthed the first of the so-called smog giants. These hot-tempered behemoths all originate from a clan of unfortunate hill giants which became so attuned to their strange environment they developed unique mutations and incredibly violent dispositions. For all their physical abnormalities, it's still fair to say the violent confrontations common along the Western Ravage are the true cause of smog giants' monstrous nature.</p>\n<p>Smog giants can eat meat and bone, but they prefer diets of black powder and the raw materials that make up this alchemical concoction. Their bodies store repositories of the stuff infused with the unstable occult energies that lace their flesh, granting them the ability to \"crack\" these pockets of subdermal explosives when they attack, much like a tough cracking their knuckles during a fight. In this case however, the results are much more violent&mdash;especially when coupled with the large quantities of weaponized body piercings and adornments smog giants often wear.</p>",
            "source": {
                "value": "Pathfinder #179: Cradle of Quartz"
            }
        },
        "resources": {},
        "saves": {
            "fortitude": {
                "saveDetail": "",
                "value": 17
            },
            "reflex": {
                "saveDetail": "",
                "value": 15
            },
            "will": {
                "saveDetail": "",
                "value": 13
            }
        },
        "traits": {
            "di": {
                "custom": "Ingested Poisons",
                "value": []
            },
            "dr": [
                {
                    "exceptions": "",
                    "type": "fire",
                    "value": 10
                },
                {
                    "exceptions": "",
                    "type": "poison",
                    "value": 10
                }
            ],
            "dv": [],
            "languages": {
                "custom": "",
                "selected": [],
                "value": [
                    "common",
                    "jotun",
                    "kelish"
                ]
            },
            "rarity": "rare",
            "senses": {
                "value": "low-light vision"
            },
            "size": {
                "value": "lg"
            },
            "traits": {
                "custom": "",
                "value": [
                    "giant",
                    "humanoid"
                ]
            }
        }
    },
    "img": "systems/pf2e/icons/default-icons/npc.svg",
    "items": [
        {
            "_id": "r2uuH1aEv7TKsf1a",
            "data": {
                "attack": {
                    "value": ""
                },
                "attackEffects": {
                    "value": []
                },
                "bonus": {
                    "value": 18
                },
                "damageRolls": {
                    "2bg3hoyw7xh549g8hdk4": {
                        "damage": "2d10+8",
                        "damageType": "bludgeoning"
                    }
                },
                "description": {
                    "value": ""
                },
                "rules": [],
                "slug": null,
                "source": {
                    "value": ""
                },
                "traits": {
                    "custom": "",
                    "rarity": "common",
                    "value": []
                },
                "weaponType": {
                    "value": "melee"
                }
            },
            "img": "systems/pf2e/icons/default-icons/melee.svg",
            "name": "Headbutt",
            "sort": 100000,
            "type": "melee"
        },
        {
            "_id": "94S9yCHONOohtzU8",
            "data": {
                "attack": {
                    "value": ""
                },
                "attackEffects": {
                    "value": []
                },
                "bonus": {
                    "value": 18
                },
                "damageRolls": {
                    "23o5uuctsus0stp65s15": {
                        "damage": "2d8+8",
                        "damageType": "bludgeoning"
                    }
                },
                "description": {
                    "value": ""
                },
                "rules": [],
                "slug": null,
                "source": {
                    "value": ""
                },
                "traits": {
                    "custom": "",
                    "rarity": "common",
                    "value": [
                        "agile",
                        "reach-10"
                    ]
                },
                "weaponType": {
                    "value": "melee"
                }
            },
            "img": "systems/pf2e/icons/default-icons/melee.svg",
            "name": "Fist",
            "sort": 200000,
            "type": "melee"
        },
        {
            "_id": "KUO5Um8S5dLUvF6o",
            "data": {
                "attack": {
                    "value": ""
                },
                "attackEffects": {
                    "value": []
                },
                "bonus": {
                    "value": 16
                },
                "damageRolls": {
                    "deue93w2u2p62dowgnt7": {
                        "damage": "2d4+8",
                        "damageType": "bludgeoning"
                    }
                },
                "description": {
                    "value": ""
                },
                "rules": [],
                "slug": null,
                "source": {
                    "value": ""
                },
                "traits": {
                    "custom": "",
                    "rarity": "common",
                    "value": [
                        "range-30",
                        "versatile-p"
                    ]
                },
                "weaponType": {
                    "value": "ranged"
                }
            },
            "img": "systems/pf2e/icons/default-icons/melee.svg",
            "name": "Shrapnel",
            "sort": 300000,
            "type": "melee"
        },
        {
            "_id": "Hc4qoyb4lX3qFrKO",
            "data": {
                "actionCategory": {
                    "value": "interaction"
                },
                "actionType": {
                    "value": "passive"
                },
                "actions": {
                    "value": null
                },
                "deathNote": false,
                "description": {
                    "value": "<p>@Localize[PF2E.NPC.Abilities.Glossary.LowLightVision]</p>"
                },
                "requirements": {
                    "value": ""
                },
                "rules": [],
                "slug": "low-light-vision",
                "source": {
                    "value": ""
                },
                "traits": {
                    "custom": "",
                    "rarity": "common",
                    "value": []
                },
                "trigger": {
                    "value": ""
                },
                "weapon": {
                    "value": ""
                }
            },
            "flags": {
                "core": {
                    "sourceId": "Compendium.pf2e.bestiary-ability-glossary-srd.fFu2sZz4KB01fVRc"
                }
            },
            "img": "systems/pf2e/icons/actions/Passive.webp",
            "name": "Low-Light Vision",
            "sort": 400000,
            "type": "action"
        },
        {
            "_id": "hq6fn6LTmAlD51Eq",
            "data": {
                "actionCategory": {
                    "value": "defensive"
                },
                "actionType": {
                    "value": "reaction"
                },
                "actions": {
                    "value": null
                },
                "deathNote": false,
                "description": {
                    "value": "<p>@Localize[PF2E.NPC.Abilities.Glossary.AttackOfOpportunity]</p>"
                },
                "requirements": {
                    "value": ""
                },
                "rules": [],
                "slug": "attack-of-opportunity",
                "source": {
                    "value": ""
                },
                "traits": {
                    "custom": "",
                    "rarity": "common",
                    "value": []
                },
                "trigger": {
                    "value": ""
                },
                "weapon": {
                    "value": ""
                }
            },
            "flags": {
                "core": {
                    "sourceId": "Compendium.pf2e.bestiary-ability-glossary-srd.hFtNbo1LKYCoDy2O"
                }
            },
            "img": "systems/pf2e/icons/actions/Reaction.webp",
            "name": "Attack of Opportunity",
            "sort": 500000,
            "type": "action"
        },
        {
            "_id": "3XUaegVsfZbU0Huf",
            "data": {
                "actionCategory": {
                    "value": "defensive"
                },
                "actionType": {
                    "value": "reaction"
                },
                "actions": {
                    "value": null
                },
                "deathNote": false,
                "description": {
                    "value": "<p>@Localize[PF2E.NPC.Abilities.Glossary.CatchRock]</p>"
                },
                "requirements": {
                    "value": ""
                },
                "rules": [],
                "slug": "catch-rock",
                "source": {
                    "value": ""
                },
                "traits": {
                    "custom": "",
                    "rarity": "common",
                    "value": []
                },
                "trigger": {
                    "value": ""
                },
                "weapon": {
                    "value": ""
                }
            },
            "flags": {
                "core": {
                    "sourceId": "Compendium.pf2e.bestiary-ability-glossary-srd.uG0Z8PsyZtsYuvGR"
                }
            },
            "img": "systems/pf2e/icons/actions/Reaction.webp",
            "name": "Catch Rock",
            "sort": 600000,
            "type": "action"
        },
        {
            "_id": "V9X6VsgOQmUoRrd2",
            "data": {
                "actionCategory": {
                    "value": "offensive"
                },
                "actionType": {
                    "value": "action"
                },
                "actions": {
                    "value": 2
                },
                "deathNote": false,
                "description": {
                    "value": "<p>The smog giant cracks their neck, triggering pockets of black powder at the base of their skull to impart additional power to their attack. The giant then attempts a headbutt Strike. This counts as two attacks when calculating the giant's attack penalty. If this Strike hits, it deals [[/r {2d10+8}[bludgeoning]]]{2d10+8 bludgeoning damage} and the creature struck must attempt a @Check[type:fortitude|dc:25] save.</p>\n<hr />\n<p><strong>Critical Success</strong> The creature suffers no additional effect.</p>\n<p><strong>Success</strong> The creature takes an additional [[/r {1d10}[bludgeoning]]]{1d10 bludgeoning damage}.</p>\n<p><strong>Failure</strong> The creature takes an additional [[/r {2d10}[bludgeoning]]]{2d10 bludgeoning damage} and is knocked @Compendium[pf2e.conditionitems.Prone]{Prone} if it's Large or smaller.</p>\n<p><strong>Critical Failure</strong> As failure, but without a size limit.</p>"
                },
                "requirements": {
                    "value": ""
                },
                "rules": [],
                "slug": null,
                "source": {
                    "value": ""
                },
                "traits": {
                    "custom": "",
                    "rarity": "common",
                    "value": []
                },
                "trigger": {
                    "value": ""
                }
            },
            "img": "systems/pf2e/icons/actions/TwoActions.webp",
            "name": "Explosive Headbutt",
            "sort": 700000,
            "type": "action"
        },
        {
            "_id": "SCyykMeBV9VZo7pd",
            "data": {
                "actionCategory": {
                    "value": "offensive"
                },
                "actionType": {
                    "value": "passive"
                },
                "actions": {
                    "value": null
                },
                "deathNote": false,
                "description": {
                    "value": "<p>A smog giant has a dozen implanted knives, rocks, chunks of metal, spikes, and other adornments that they can fire from their body with great force to make ranged shrapnel Strikes. Once a smog giant has used all 12 shots, they must replace them one at a time using a 1-minute Interact activity.</p>"
                },
                "requirements": {
                    "value": ""
                },
                "rules": [],
                "slug": null,
                "source": {
                    "value": ""
                },
                "traits": {
                    "custom": "",
                    "rarity": "common",
                    "value": []
                },
                "trigger": {
                    "value": ""
                }
            },
            "img": "systems/pf2e/icons/actions/Passive.webp",
            "name": "Shrapnel",
            "sort": 800000,
            "type": "action"
        },
        {
            "_id": "SdbDQvAfti0u9IO2",
            "data": {
                "description": {
                    "value": ""
                },
                "mod": {
                    "value": 17
                },
                "proficient": {
                    "value": 0
                },
                "rules": [],
                "slug": null,
                "source": {
                    "value": ""
                },
                "traits": {
                    "custom": "",
                    "rarity": "common",
                    "value": []
                }
            },
            "img": "systems/pf2e/icons/default-icons/lore.svg",
            "name": "Athletics",
            "sort": 900000,
            "type": "lore"
        },
        {
            "_id": "S4ZFQb8dPFix10db",
            "data": {
                "description": {
                    "value": ""
                },
                "mod": {
                    "value": 15
                },
                "proficient": {
                    "value": 0
                },
                "rules": [],
                "slug": null,
                "source": {
                    "value": ""
                },
                "traits": {
                    "custom": "",
                    "rarity": "common",
                    "value": []
                }
            },
            "img": "systems/pf2e/icons/default-icons/lore.svg",
            "name": "Intimidation",
            "sort": 1000000,
            "type": "lore"
        },
        {
            "_id": "PXe1BtyqhI7fenD0",
            "data": {
                "description": {
                    "value": ""
                },
                "mod": {
                    "value": 13
                },
                "proficient": {
                    "value": 0
                },
                "rules": [],
                "slug": null,
                "source": {
                    "value": ""
                },
                "traits": {
                    "custom": "",
                    "rarity": "common",
                    "value": []
                }
            },
            "img": "systems/pf2e/icons/default-icons/lore.svg",
            "name": "Survival",
            "sort": 1100000,
            "type": "lore"
        }
    ],
    "name": "Smog Giant",
    "token": {
        "disposition": -1,
        "height": 1,
        "img": "systems/pf2e/icons/default-icons/npc.svg",
        "name": "Smog Giant",
        "width": 1
    },
    "type": "npc"
}
