{
    "_id": "uaZZy9cJPqGW9x3X",
    "content": "<table class=\"pf2-table\">\n<thead>\n<tr>\n<th>\n<h3><strong>Name</strong></h3>\n</th>\n<th>\n<h3><strong>Crit Effect</strong></h3>\n</th>\n<th>\n<h3><strong>Type</strong></h3>\n</th>\n</tr>\n</thead>\n<tbody>\n<tr>\n<td>\n<h3>Low Blow</h3>\n</td>\n<td>\n<h3>The target is sickened 2 and slowed 1 as long as it remains sickened.</h3>\n</td>\n<td>\n<h3>Bludgeoning</h3>\n</td>\n</tr>\n<tr>\n<td>\n<h3>Hobbled</h3>\n</td>\n<td>\n<h3>Until healed, the target is clumsy 2 and takes a -10-foot status penalty to all Speeds.</h3>\n</td>\n<td>\n<h3>Piercing</h3>\n</td>\n</tr>\n<tr>\n<td>\n<h3>Bad Parry</h3>\n</td>\n<td>\n<h3>The target must succeed at a Reflex save or drop one weapon it is holding (determined randomly by the GM).</h3>\n</td>\n<td>\n<h3>Slashing</h3>\n</td>\n</tr>\n<tr>\n<td>\n<h3>Planar Rift</h3>\n</td>\n<td>\n<h3>If this is a spell, the target takes normal damage and must succeed at a Will save or be sent to a random plane (determined by the GM).</h3>\n</td>\n<td>\n<h3>Bomb or Spell</h3>\n</td>\n</tr>\n</tbody>\n</table>\n<h3 style=\"text-align: left;\"> </h3>",
    "flags": {},
    "name": "Critical Hit Deck #54",
    "permission": {
        "default": 0
    }
}
