{
    "_id": "SQAqU3m7BXHm8TGC",
    "content": "<table class=\"pf2-table\">\n<thead>\n<tr>\n<th>\n<h3><strong>Name</strong></h3>\n</th>\n<th>\n<h3><strong>Crit Effect</strong></h3>\n</th>\n<th>\n<h3><strong>Type</strong></h3>\n</th>\n</tr>\n</thead>\n<tbody>\n<tr>\n<td>\n<h3>Soul-Crushing Blow</h3>\n</td>\n<td>\n<h3>The target is doomed 1 and is stupefied 1 for as long as it is doomed.</h3>\n</td>\n<td>\n<h3>Bludgeoning</h3>\n</td>\n</tr>\n<tr>\n<td>\n<h3>Knockback</h3>\n</td>\n<td>\n<h3>The target is pushed 10 feet.</h3>\n</td>\n<td>\n<h3>Piercing</h3>\n</td>\n</tr>\n<tr>\n<td>\n<h3>Armor Damage</h3>\n</td>\n<td>\n<h3>The target's armor also takes the damage (applying the armor's Hardness normally).</h3>\n</td>\n<td>\n<h3>Slashing</h3>\n</td>\n</tr>\n<tr>\n<td>\n<h3>Draining Strike</h3>\n</td>\n<td>\n<h3>The target loses one random prepared spell or spell slot, as determined by the GM.</h3>\n</td>\n<td>\n<h3>Bomb or Spell</h3>\n</td>\n</tr>\n</tbody>\n</table>\n<h3 style=\"text-align: left;\"> </h3>",
    "flags": {},
    "name": "Critical Hit Deck #39",
    "permission": {
        "default": 0
    }
}
