{
    "_id": "1If9lLVoZdO8woVg",
    "data": {
        "actionCategory": {
            "value": ""
        },
        "actionType": {
            "value": "action"
        },
        "actions": {
            "value": 1
        },
        "description": {
            "value": "<p><strong>Requirements</strong> You are adjacent to the corpse of a Small or larger creature that died in the last hour;</p>\n<hr />\n<p>You devour a chunk of the corpse. You become satiated for 1 hour.</p>"
        },
        "requirements": {
            "value": ""
        },
        "rules": [],
        "source": {
            "value": "Pathfinder Book of the Dead"
        },
        "traits": {
            "custom": "",
            "rarity": "common",
            "value": [
                "manipulate"
            ]
        },
        "trigger": {
            "value": ""
        }
    },
    "img": "systems/pf2e/icons/actions/OneAction.webp",
    "name": "Consume Flesh",
    "type": "action"
}
