{
    "_id": "nSTMF6kYIt6rXhJx",
    "data": {
        "actionCategory": {
            "value": "defensive"
        },
        "actionType": {
            "value": "action"
        },
        "actions": {
            "value": 1
        },
        "description": {
            "value": "<p>Your eidolon's fury boils over into a reckless, out-of-control frenzy. While frenzied, your eidolon is affected by <em>boost eidolon</em> and gains temporary Hit Points equal to your level, but it takes a -2 penalty to AC. Your eidolon can't voluntarily end the frenzy or start another frenzy while in the frenzy.</p>\n<p>The frenzy lasts for 1 minute, after which it's @Compendium[pf2e.conditionitems.Fatigued]{Fatigued} for 1 minute and can't start another frenzy for 1 minute.</p>"
        },
        "requirements": {
            "value": ""
        },
        "rules": [],
        "source": {
            "value": ""
        },
        "traits": {
            "custom": "",
            "rarity": "common",
            "value": [
                "concentrate",
                "eidolon",
                "emotion",
                "mental"
            ]
        },
        "trigger": {
            "value": ""
        },
        "weapon": {
            "value": ""
        }
    },
    "img": "systems/pf2e/icons/actions/OneAction.webp",
    "name": "Seething Frenzy",
    "type": "action"
}
