{
    "_id": "HFKh5iq1UV06HP4F",
    "data": {
        "attributes": {
            "ac": {
                "value": 25
            },
            "hardness": 15,
            "hasHealth": true,
            "hp": {
                "details": "",
                "max": 60,
                "temp": 0,
                "tempmax": 0,
                "value": 60
            },
            "stealth": {
                "details": "<p>(expert)</p>",
                "value": 17
            }
        },
        "creatureType": "",
        "details": {
            "description": "<p>Six metal talons concealed in the walls swing out and rake across the room.</p>",
            "disable": "<p>Thievery DC 25 (expert) to disable each talon</p>",
            "isComplex": false,
            "level": {
                "value": 7
            },
            "reset": "<p>The trap resets after 1 minute.</p>",
            "routine": ""
        },
        "saves": {
            "fortitude": {
                "saveDetail": "",
                "value": 18
            },
            "reflex": {
                "saveDetail": "",
                "value": 10
            },
            "will": {
                "saveDetail": "",
                "value": 0
            }
        },
        "source": {
            "value": "Pathfinder Adventure: The Slithering"
        },
        "statusEffects": [],
        "traits": {
            "ci": [],
            "di": {
                "custom": "",
                "selected": {},
                "value": [
                    "precision",
                    "critical-hits",
                    "object-immunities"
                ]
            },
            "dr": [],
            "dv": [],
            "rarity": "uncommon",
            "size": {
                "value": "med"
            },
            "traits": {
                "custom": "",
                "value": [
                    "mechanical"
                ]
            }
        }
    },
    "img": "systems/pf2e/icons/default-icons/hazard.svg",
    "items": [
        {
            "_id": "ekyAVhOS1kB49Mgy",
            "data": {
                "actionCategory": {
                    "value": ""
                },
                "actionType": {
                    "value": "reaction"
                },
                "actions": {
                    "value": null
                },
                "description": {
                    "value": "<p><strong>Trigger</strong> one of the pressure plates is depressed</p>\n<p><strong>Effect</strong> Six talons swing out from the walls, each striking a different random creature in the room. No creature can be struck by more than one talon until every creature in the room has been attacked by at least one talon.</p>"
                },
                "requirements": {
                    "value": ""
                },
                "rules": [],
                "slug": null,
                "source": {
                    "value": ""
                },
                "traits": {
                    "custom": "",
                    "rarity": "common",
                    "value": [
                        "attack"
                    ]
                },
                "trigger": {
                    "value": ""
                },
                "weapon": {
                    "value": ""
                }
            },
            "img": "systems/pf2e/icons/actions/Reaction.webp",
            "name": "Raking Strike",
            "sort": 100000,
            "type": "action"
        },
        {
            "_id": "kfGQYlKntDqQ1rMg",
            "data": {
                "attack": {
                    "value": ""
                },
                "attackEffects": {
                    "custom": "No MAP Penalty",
                    "value": []
                },
                "bonus": {
                    "value": 22
                },
                "damageRolls": {
                    "rpx6g8gm5kg8nxh36k8iln": {
                        "damage": "1d10+2",
                        "damageType": "piercing"
                    }
                },
                "description": {
                    "value": ""
                },
                "rules": [],
                "slug": null,
                "source": {
                    "value": ""
                },
                "traits": {
                    "custom": "",
                    "rarity": "common",
                    "value": [
                        "deadly-d10"
                    ]
                },
                "weaponType": {
                    "value": "melee"
                }
            },
            "img": "systems/pf2e/icons/default-icons/melee.svg",
            "name": "Talon",
            "sort": 200000,
            "type": "melee"
        }
    ],
    "name": "Angazhan's Rake Trap",
    "token": {
        "disposition": 0,
        "height": 1,
        "img": "systems/pf2e/icons/default-icons/hazard.svg",
        "name": "Angazhan's Rake Trap",
        "width": 1
    },
    "type": "hazard"
}
