{
    "_id": "5YUNikBpJZ596MRD",
    "data": {
        "ability": [
            "dex",
            "wis"
        ],
        "alignment": {
            "follower": [
                "LG",
                "LN",
                "N"
            ],
            "own": "LN"
        },
        "description": {
            "value": "<p>Anubis is the son of Osiris and Nephthys, born out of wedlock and he assisted Isis in the mummification of his father. He frequently works with Isis, Neith, Nephthys, and Selket in the protection of the dead, and is an enemy of Set due to his association with undead.</p>\n<p><strong>Edicts</strong> Lay bodies to rest, destroy undead, be impartial in judgment</p>\n<p><strong>Anathema</strong> Desecrate a corpse, rob a tomb, trap a soul</p>"
        },
        "domains": {
            "alternate": [],
            "primary": [
                "death",
                "protection",
                "soul",
                "vigil"
            ]
        },
        "font": [
            "harm",
            "heal"
        ],
        "rules": [],
        "skill": "occ",
        "source": {
            "value": "Pathfinder Lost Omens: Gods & Magic"
        },
        "spells": {
            "1": "Compendium.pf2e.spells-srd.xqmHD8JIjak15lRk",
            "3": "Compendium.pf2e.spells-srd.HcIAQZjNXHemoXSU",
            "5": "Compendium.pf2e.spells-srd.kOa055FIrO9Smnya"
        },
        "weapons": [
            "flail"
        ]
    },
    "flags": {},
    "img": "systems/pf2e/icons/default-icons/deity.svg",
    "name": "Anubis",
    "type": "deity"
}
