{
    "_id": "Zw8nhcpRxinoYRSa",
    "data": {
        "ability": [
            "dex",
            "int"
        ],
        "alignment": {
            "follower": [
                "NG",
                "CG",
                "CN"
            ],
            "own": "CG"
        },
        "description": {
            "value": "<p>The traditional deities of the elven pantheon are @Compendium[pf2e.deities.Calistria]{Calistria}, @Compendium[pf2e.deities.Desna]{Desna}, @Compendium[pf2e.deities.Findeladlara]{Findeladlara} (goddess of twilight and traditional art and architecture), @Compendium[pf2e.deities.Ketephys]{Ketephys} (god of hunting and the moon), and @Compendium[pf2e.deities.Yuelral]{Yuelral} (goddess of gems, craft, and magic). Elves have also adopted @Compendium[pf2e.deities.Alseta]{Alseta}, a minor goddess of doors and transitions, as their patron of teleportation and aiudara (commonly known as elf gates). Most elves value magic, beauty, freedom, and friendship as part of a fulfilling life and tend to worship all of the deities together as exemplars of these values. Alongside full-blooded elves, many half-elves-whether raised by elves or seeking a closer connection to their elven heritage- worship the elven pantheon.</p>\n<p><strong>Edicts</strong> learn and appreciate traditional elven arts, crafts, and magic, explore the worlds outside and within</p>\n<p><strong>Anathema</strong> irreparably damage the natural environment (such as by overhunting or strip mining), have an unhealthy obsession or attachment</p>\n<p><strong>Areas of Concern</strong> elves, magic, nature, tradition</p>"
        },
        "domains": {
            "alternate": [],
            "primary": [
                "creation",
                "magic",
                "moon",
                "nature"
            ]
        },
        "font": [
            "heal"
        ],
        "rules": [],
        "skill": "sur",
        "source": {
            "value": "Pathfinder Lost Omens: Gods & Magic"
        },
        "spells": {
            "1": "Compendium.pf2e.spells-srd.s3abwDbTV43pGFFW",
            "2": "Compendium.pf2e.spells-srd.CXICME10TkEJxz0P",
            "5": "Compendium.pf2e.spells-srd.F1qxaqsEItmBura2"
        },
        "weapons": [
            "longbow",
            "shortbow"
        ]
    },
    "flags": {},
    "img": "systems/pf2e/icons/default-icons/deity.svg",
    "name": "Elven Pantheon",
    "type": "deity"
}
