{
    "_id": "xxUGdZYUj5IW7E0L",
    "data": {
        "ability": [],
        "alignment": {
            "follower": [
                "LG",
                "LN",
                "LE"
            ],
            "own": "LN"
        },
        "description": {
            "value": "<p>On the Material Plane, some mortals worship norns as deities, while others, especially witches and bards, admire them as patrons or muses. Those who uphold norns as deities are known as Followers of Fate. Norns do little to discourage this veneration, but neither do they go out of their way to support such worship. Clerics who venerate norns might worship a specific norn or norn triumvirate, or all norns as a whole, but they gain the same benefits regardless of their choice.</p>\n<p>The religious symbol of Followers of Fate is a pair of shears cutting a golden thread, and their areas of concern are destiny, fate, and the aging process.</p>\n<p><strong>Edicts</strong> make predictions of the future, offer advice and guidance to those in positions of power, provide comfort to the elderly</p>\n<p><strong>Anathema</strong> apologize for making an incorrect prediction, disrespect mothers, accept payment for fortune-telling</p>\n<p><strong>Areas of Concern</strong> destiny, fate, and the aging process.</p>"
        },
        "domains": {
            "alternate": [],
            "primary": [
                "family",
                "fate",
                "knowledge",
                "truth"
            ]
        },
        "font": [
            "harm",
            "heal"
        ],
        "rules": [],
        "skill": "occ",
        "source": {
            "value": "Pathfinder Bestiary 2"
        },
        "spells": {
            "1": "Compendium.pf2e.spells-srd.D442XMADp01qJ7Cs",
            "3": "Compendium.pf2e.spells-srd.MNiT0dHol5fEcKlz",
            "5": "Compendium.pf2e.spells-srd.Ek5XI0aEdZhBgm21"
        },
        "weapons": [
            "shears"
        ]
    },
    "flags": {},
    "img": "systems/pf2e/icons/default-icons/deity.svg",
    "name": "Followers of Fate",
    "type": "deity"
}
