{
    "_id": "WloVxo6HXJdS4YTt",
    "data": {
        "ability": [
            "str",
            "cha"
        ],
        "alignment": {
            "follower": [
                "CN",
                "CE"
            ],
            "own": "CN"
        },
        "description": {
            "value": "<p>Ancient beyond mortal reckoning, Groetus is an entity who cannot be easily understood. He hangs in the sky above the Boneyard, a skull-faced moon constantly observing the passage of the souls below. Events can cause him to draw ominously closer to @Compendium[pf2e.deities.Pharasma]{Pharasma}'s Spire, or to retreat back to a safer distance, with little obvious rhyme or reason for these actions. He evinces little regard for anything but his singular aim: the dissolution of the universe.</p>\n<p><strong>Edicts</strong> preach of the upcoming end times, destroy that which has outlived its usefulness, put the suffering out of their misery</p>\n<p><strong>Anathema</strong> artificially extend something's existence or lifespan, spread hope</p>\n<p><strong>Areas of Concern</strong> apocalypse, empty places, oblivion, ruins</p>"
        },
        "domains": {
            "alternate": [
                "decay"
            ],
            "primary": [
                "darkness",
                "destruction",
                "nightmares",
                "void"
            ]
        },
        "font": [
            "harm"
        ],
        "rules": [],
        "skill": "itm",
        "source": {
            "value": "Pathfinder Lost Omens: Gods & Magic"
        },
        "spells": {
            "1": "Compendium.pf2e.spells-srd.R8bqnYiThB6MYTxD",
            "5": "Compendium.pf2e.spells-srd.GaRQlC9Yw1BGKHfN",
            "9": "Compendium.pf2e.spells-srd.ihbRf964JDXztcy3"
        },
        "weapons": [
            "war-flail"
        ]
    },
    "flags": {},
    "img": "systems/pf2e/icons/deity/Groetus.webp",
    "name": "Groetus",
    "type": "deity"
}
