{
    "_id": "aLCfEgt48SRUHnMC",
    "data": {
        "ability": [
            "str",
            "con"
        ],
        "alignment": {
            "follower": [
                "LG",
                "NG",
                "N"
            ],
            "own": "NG"
        },
        "description": {
            "value": "<p><strong>Jaidi</strong> is a goddess of agriculture worshiped by the people of ancient Azlant. She represents the pleasure that one feels when contributing hard work for the community as a whole.</p>\n<p><strong>Edicts</strong> Encourage hard work that benefits all, ensure the health of crops and vegetation</p>\n<p><strong>Anathema</strong> Destroy healthy crops, waste food, refuse to help others in your community</p>"
        },
        "domains": {
            "alternate": [],
            "primary": [
                "family",
                "might",
                "nature",
                "sun"
            ]
        },
        "font": [
            "heal"
        ],
        "rules": [],
        "skill": "nat",
        "source": {
            "value": "Pathfinder Lost Omens: Gods & Magic"
        },
        "spells": {
            "1": "Compendium.pf2e.spells-srd.TPI9fRCAYsDqpAe4",
            "2": "Compendium.pf2e.spells-srd.CXICME10TkEJxz0P",
            "3": "Compendium.pf2e.spells-srd.KsWhliKfUs3IpW3c"
        },
        "weapons": [
            "scythe"
        ]
    },
    "flags": {},
    "img": "systems/pf2e/icons/default-icons/deity.svg",
    "name": "Jaidi",
    "type": "deity"
}
