{
    "_id": "o9tK1T28LNEVzpFV",
    "data": {
        "ability": [
            "dex",
            "wis"
        ],
        "alignment": {
            "follower": [
                "NG",
                "LN",
                "N",
                "CN"
            ],
            "own": "N"
        },
        "description": {
            "value": "<p><strong>Edicts</strong> Seek enlightenment through worldly experience, create humor in life, use harmless pranks to teach others</p>\n<p><strong>Anathema</strong> Make a joke out of someone's suffering, own a slave, discriminate based on social status</p>"
        },
        "domains": {
            "alternate": [],
            "primary": [
                "air",
                "confidence",
                "might",
                "perfection"
            ]
        },
        "font": [
            "heal"
        ],
        "rules": [],
        "skill": "acr",
        "source": {
            "value": "Pathfinder Lost Omens: Gods & Magic"
        },
        "spells": {
            "1": "Compendium.pf2e.spells-srd.dgCH2E0gMLMUgyFl",
            "3": "Compendium.pf2e.spells-srd.tFKJCPvOQZxKq6ON",
            "4": "Compendium.pf2e.spells-srd.V8wXOsoejQhe6CyG"
        },
        "weapons": [
            "mace"
        ]
    },
    "flags": {},
    "img": "systems/pf2e/icons/default-icons/deity.svg",
    "name": "Ragdya",
    "type": "deity"
}
