{
    "_id": "8wOAwLMgB1HFLo9n",
    "data": {
        "ability": [
            "int",
            "wis"
        ],
        "alignment": {
            "follower": [
                "LG",
                "NG",
                "LN"
            ],
            "own": "LG"
        },
        "description": {
            "value": "<p><strong>Edicts</strong> Serve leaders of ceremonies, craft ceremonial arms and armor, lead a congregation</p>\n<p><strong>Anathema</strong> Deride sacred ceremonies, carelessly or lazily perform rituals, destroy ceremonial objects</p>"
        },
        "domains": {
            "alternate": [],
            "primary": [
                "glyph",
                "knowledge",
                "protection",
                "vigil"
            ]
        },
        "font": [
            "heal"
        ],
        "rules": [],
        "skill": "occ",
        "source": {
            "value": "Pathfinder Lost Omens: Gods & Magic"
        },
        "spells": {
            "1": "Compendium.pf2e.spells-srd.nXmC2Xx9WmS5NsAo",
            "2": "Compendium.pf2e.spells-srd.vTQvfYu2llKQedmY",
            "4": "Compendium.pf2e.spells-srd.hkfH9Z53hPzcOwNB"
        },
        "weapons": [
            "mace"
        ]
    },
    "flags": {},
    "img": "systems/pf2e/icons/default-icons/deity.svg",
    "name": "Winlas",
    "type": "deity"
}
