{
    "_id": "41qaGiMit8nDP4xv",
    "content": "<p><strong>Deities</strong> @Compendium[pf2e.deities.Nhimbaloth]{Nhimbaloth}</p>\n<p><strong>Domain Spell</strong> <em>@Compendium[pf2e.spells-srd.Lift Nature's Caul]{Lift Nature's Caul}</em><u></u>; <strong>Advanced Domain Spell</strong> <em>@Compendium[pf2e.spells-srd.Fearful Feast]{Fearful Feast}</em></p>\n<p>You seek to instill abhorrence and horror in those around you.</p>",
    "flags": {},
    "name": "Abomination Domain",
    "permission": {
        "default": 0
    }
}
