{
    "_id": "B40VxP6oZ0mIR4PS",
    "content": "<p><strong>Deities</strong> @Compendium[pf2e.deities.Angradd]{Angradd}, @Compendium[pf2e.deities.Cosmic Caravan]{Cosmic Caravan}, @Compendium[pf2e.deities.Erecura]{Erecura}, @Compendium[pf2e.deities.Followers of Fate]{Followers of Fate}, @Compendium[pf2e.deities.Grandmother Spider]{Grandmother Spider}, @Compendium[pf2e.deities.Imot]{Imot}, @Compendium[pf2e.deities.Irez]{Irez}, @Compendium[pf2e.deities.Lissala]{Lissala}, @Compendium[pf2e.deities.Luhar]{Luhar}, @Compendium[pf2e.deities.Lysianassa]{Lysianassa}, @Compendium[pf2e.deities.Magdh]{Magdh}, @Compendium[pf2e.deities.Magrim]{Magrim}, @Compendium[pf2e.deities.Mahathallah]{Mahathallah}, @Compendium[pf2e.deities.Otolmens]{Otolmens}, @Compendium[pf2e.deities.Pharasma]{Pharasma}, @Compendium[pf2e.deities.Ravithra]{Ravithra}, @Compendium[pf2e.deities.Shyka]{Shyka}, @Compendium[pf2e.deities.Valmallos]{Valmallos}</p>\n<p><strong>Domain Spell</strong> <em>@Compendium[pf2e.spells-srd.Read Fate]{Read Fate}</em>; <strong>Advanced Domain Spell</strong> <em>@Compendium[pf2e.spells-srd.Tempt Fate]{Tempt Fate}</em></p>\n<p>You see and understand hidden inevitabilities.</p>",
    "flags": {},
    "name": "Fate Domain",
    "permission": {
        "default": 0
    }
}
