{
    "_id": "HpZ4NQIqBRcFihyE",
    "content": "<p><strong>Deities</strong> @Compendium[pf2e.deities.Abadar]{Abadar}, @Compendium[pf2e.deities.Besmara]{Besmara}, @Compendium[pf2e.deities.Dwarven Pantheon]{Dwarven Pantheon}, @Compendium[pf2e.deities.Erastil]{Erastil}, @Compendium[pf2e.deities.Falayna]{Falayna}, @Compendium[pf2e.deities.Hanspur]{Hanspur}, @Compendium[pf2e.deities.Hastur]{Hastur}, @Compendium[pf2e.deities.Kofusachi]{Kofusachi}, @Compendium[pf2e.deities.Mammon]{Mammon}, @Compendium[pf2e.deities.Nivi Rhombodazzle]{Nivi Rhombodazzle}, @Compendium[pf2e.deities.Norgorber]{Norgorber}, @Compendium[pf2e.deities.Raumya]{Raumya}, @Compendium[pf2e.deities.Sairazul]{Sairazul}, @Compendium[pf2e.deities.Thamir]{Thamir}</p>\n<p><strong>Domain Spell</strong> <em>@Compendium[pf2e.spells-srd.Appearance of Wealth]{Appearance of Wealth}</em>; <strong>Advanced Domain Spell</strong> <em>@Compendium[pf2e.spells-srd.Precious Metals]{Precious Metals}</em></p>\n<p>You hold power over wealth, trade, and treasure.</p>",
    "flags": {},
    "name": "Wealth Domain",
    "permission": {
        "default": 0
    }
}
