{
    "_id": "lD2RA75awEu4cG7e",
    "data": {
        "actionCategory": {
            "value": "interaction"
        },
        "actionType": {
            "value": "passive"
        },
        "actions": {
            "value": null
        },
        "deathNote": false,
        "description": {
            "value": "<p>You spend 2 consecutive days in town generating Anticipation for your next circus show. Attempt a @Check[type:society] check. The DC of this check is equal to the DC appropriate for the group's party level. One other PC can spend 2 downtime days to Aid you, providing a +2 circumstance bonus to your Society check if they succeed at a @Check[type:society|dc:20] check.</p>\n<hr />\n<p><strong>Critical Success</strong> You generate Anticipation equal to twice the sum of your level plus your Charisma modifier (minimum 2).</p>\n<p><strong>Success</strong> You generate Anticipation equal to your level plus your Charisma modifier (minimum 1).</p>\n<p><strong>Failure</strong> You generate 1 Anticipation.</p>\n<p><strong>Critical Failure</strong> You generate no Anticipation.</p>"
        },
        "requirements": {
            "value": ""
        },
        "rules": [],
        "source": {
            "value": "Pathfinder #151: The Show Must Go On"
        },
        "traits": {
            "custom": "",
            "rarity": "common",
            "value": [
                "circus",
                "downtime"
            ]
        },
        "trigger": {
            "value": ""
        }
    },
    "img": "systems/pf2e/icons/actions/Passive.webp",
    "name": "Promote the Circus",
    "type": "action"
}
