{
    "_id": "eLAoo8l1I3OiibwW",
    "data": {
        "attributes": {
            "ac": {
                "value": 10
            },
            "hardness": 0,
            "hp": {
                "details": "",
                "max": 10,
                "temp": 0,
                "value": 10
            },
            "stealth": {
                "details": "<p>(master) to sense something unusual lurking in the area's echoes</p>",
                "value": 32
            }
        },
        "creatureType": "",
        "details": {
            "description": "<p>A pack of cannibalistic spirits swarm through the area, devouring living creatures.</p>",
            "disable": "<p>@Check[type:intimidation|dc:40|name:Drive off the spirits] (master) to drive the spirits off with a ferocious display or @Check[type:occultism|dc:42|name:Exorcise the spirits] (expert) to exorcise the spirits</p>",
            "isComplex": false,
            "level": {
                "value": 16
            },
            "reset": "<p>1 day</p>",
            "routine": ""
        },
        "saves": {
            "fortitude": {
                "saveDetail": "",
                "value": 0
            },
            "reflex": {
                "saveDetail": "",
                "value": 0
            },
            "will": {
                "saveDetail": "",
                "value": 0
            }
        },
        "source": {
            "value": "Pathfinder Book of the Dead"
        },
        "statusEffects": [],
        "traits": {
            "di": {
                "custom": "",
                "selected": {},
                "value": []
            },
            "dr": [],
            "dv": [],
            "rarity": "common",
            "size": {
                "value": "med"
            },
            "traits": {
                "custom": "",
                "value": [
                    "haunt"
                ]
            }
        }
    },
    "img": "systems/pf2e/icons/default-icons/hazard.svg",
    "items": [
        {
            "_id": "6iygpHZZveJtpY3U",
            "data": {
                "actionCategory": {
                    "value": "offensive"
                },
                "actionType": {
                    "value": "reaction"
                },
                "actions": {
                    "value": null
                },
                "deathNote": false,
                "description": {
                    "value": "<p><strong>Trigger</strong> A living creature approaches within 10 feet</p>\n<hr />\n<p><strong>Effect</strong> The spirits bite and chew, dealing [[/r {6d12+35}[piercing]]]{6d12+35 piercing damage} to each creature within @Template[type:emanation|distance:30]{30 feet}. Affected creatures must each attempt a @Check[type:reflex|dc:41] save.</p>\n<hr />\n<p><strong>Critical Success</strong> The creature is unaffected.</p>\n<p><strong>Success</strong> The creature takes half damage.</p>\n<p><strong>Failure</strong> The creature takes full damage, [[/r {2d8}[persistent,bleed]]]{2d8} @Compendium[pf2e.conditionitems.Persistent Damage]{Persistent bleed Damage}, and is @Compendium[pf2e.conditionitems.Drained]{Drained 1}.</p>\n<p><strong>Critical Failure</strong> The creature takes double damage, [[/r {4d8}[persistent,bleed]]]{4d8} @Compendium[pf2e.conditionitems.Persistent Damage]{Persistent bleed Damage}, and is @Compendium[pf2e.conditionitems.Drained]{Drained 2}.</p>"
                },
                "requirements": {
                    "value": ""
                },
                "rules": [],
                "slug": null,
                "source": {
                    "value": ""
                },
                "traits": {
                    "custom": "",
                    "rarity": "common",
                    "value": []
                },
                "trigger": {
                    "value": ""
                }
            },
            "img": "systems/pf2e/icons/actions/Reaction.webp",
            "name": "Feast",
            "sort": 0,
            "type": "action"
        }
    ],
    "name": "Cannibalistic Echoes",
    "token": {
        "disposition": 0,
        "height": 1,
        "img": "systems/pf2e/icons/default-icons/hazard.svg",
        "name": "1",
        "width": 1
    },
    "type": "hazard"
}
