{
    "_id": "8tX1seLMsXto5Kni",
    "data": {
        "attributes": {
            "ac": {
                "value": 10
            },
            "hardness": 0,
            "hp": {
                "details": "",
                "max": 10,
                "temp": 0,
                "value": 10
            },
            "stealth": {
                "details": "<p>(trained) to notice ectoplasm coalescing</p>",
                "value": 13
            }
        },
        "creatureType": "",
        "details": {
            "description": "<p>A massive ectoplasmic hand forms around a creature and squeezes it.</p>",
            "disable": "<p>@Check[type:occultism|dc:24|name:Send the ectoplasm back] (trained) to send the ectoplasm back to the Ethereal Plane or @Check[type:acrobatics|dc:26|name:Move through the ectoplasm] to move through and disrupt the coalescing ectoplasm before it takes hold</p>",
            "isComplex": false,
            "level": {
                "value": 5
            },
            "reset": "<p>1 day</p>",
            "routine": ""
        },
        "saves": {
            "fortitude": {
                "saveDetail": "",
                "value": 0
            },
            "reflex": {
                "saveDetail": "",
                "value": 0
            },
            "will": {
                "saveDetail": "",
                "value": 0
            }
        },
        "source": {
            "value": "Pathfinder Book of the Dead"
        },
        "statusEffects": [],
        "traits": {
            "di": {
                "custom": "",
                "selected": {},
                "value": []
            },
            "dr": [],
            "dv": [],
            "rarity": "common",
            "size": {
                "value": "med"
            },
            "traits": {
                "custom": "",
                "value": [
                    "haunt"
                ]
            }
        }
    },
    "img": "systems/pf2e/icons/default-icons/hazard.svg",
    "items": [
        {
            "_id": "gB36aH5yDgmXH6xc",
            "data": {
                "actionCategory": {
                    "value": "offensive"
                },
                "actionType": {
                    "value": "reaction"
                },
                "actions": {
                    "value": null
                },
                "deathNote": false,
                "description": {
                    "value": "<p><strong>Trigger</strong> A creature moves over the haunt's area</p>\n<hr />\n<p><strong>Effect</strong> The hand forms out of ectoplasm and squeezes the triggering creature, dealing [[/r {3d8+14}[bludgeoning]]]{3d8+14 bludgeoning damage} (@Check[type:fortitude|dc:22|basic:true]). On a failure, the creature is @Compendium[pf2e.conditionitems.Immobilized]{Immobilized} (@Compendium[pf2e.actionspf2e.Escape]{Escape} DC 22).</p>"
                },
                "requirements": {
                    "value": ""
                },
                "rules": [],
                "slug": null,
                "source": {
                    "value": ""
                },
                "traits": {
                    "custom": "",
                    "rarity": "common",
                    "value": []
                },
                "trigger": {
                    "value": ""
                }
            },
            "img": "systems/pf2e/icons/actions/Reaction.webp",
            "name": "Squeeze",
            "sort": 0,
            "type": "action"
        }
    ],
    "name": "Ectoplasmic Grasp",
    "token": {
        "disposition": 0,
        "height": 1,
        "img": "systems/pf2e/icons/default-icons/hazard.svg",
        "name": "1",
        "width": 1
    },
    "type": "hazard"
}
