{
    "_id": "tqTcM8VqFMyuQ0hY",
    "data": {
        "attributes": {
            "ac": {
                "value": 10
            },
            "hardness": 0,
            "hp": {
                "details": "",
                "max": 10,
                "temp": 0,
                "value": 10
            },
            "stealth": {
                "details": "<p>(trained) to hear the scratch of a quill upon paper</p>",
                "value": 12
            }
        },
        "creatureType": "",
        "details": {
            "description": "<p>As a creature touches a hand-written letter, they witness the letter's author scribe it in the past; each pen stroke across the page carves the letter's text into the creature's flesh.</p>",
            "disable": "<p>@Check[type:religion|dc:24|name:Ward off the haunt] (trained) to ward off the haunt or @Check[type:thievery|dc:25|name:Dispose of the letter] (trained) to dispose of the letter with extreme care before the haunt can form</p>",
            "isComplex": false,
            "level": {
                "value": 4
            },
            "reset": "<p>1 minute</p>",
            "routine": ""
        },
        "saves": {
            "fortitude": {
                "saveDetail": "",
                "value": 0
            },
            "reflex": {
                "saveDetail": "",
                "value": 0
            },
            "will": {
                "saveDetail": "",
                "value": 0
            }
        },
        "source": {
            "value": "Pathfinder Book of the Dead"
        },
        "statusEffects": [],
        "traits": {
            "di": {
                "custom": "",
                "selected": {},
                "value": []
            },
            "dr": [],
            "dv": [],
            "rarity": "common",
            "size": {
                "value": "med"
            },
            "traits": {
                "custom": "",
                "value": [
                    "haunt"
                ]
            }
        }
    },
    "img": "systems/pf2e/icons/default-icons/hazard.svg",
    "items": [
        {
            "_id": "sDG67LzJ4UKhFyfv",
            "data": {
                "actionCategory": {
                    "value": "offensive"
                },
                "actionType": {
                    "value": "reaction"
                },
                "actions": {
                    "value": null
                },
                "deathNote": false,
                "description": {
                    "value": "<p><strong>Trigger</strong> A creature reads the letter</p>\n<hr />\n<p><strong>Effect</strong> The haunt deals [[/r {2d8+11}[slashing]]]{2d8+11 slashing damage} to the triggering creature as the words are carved into its flesh (@Check[type:will|dc:21|basic:true]). On a failure, the creature takes [[/r {2d8}[persistent,bleed]]]{2d8} @Compendium[pf2e.conditionitems.Persistent Damage]{Persistent bleed Damage}.</p>"
                },
                "requirements": {
                    "value": ""
                },
                "rules": [],
                "slug": null,
                "source": {
                    "value": ""
                },
                "traits": {
                    "custom": "",
                    "rarity": "common",
                    "value": [
                        "divine",
                        "necromancy",
                        "visual"
                    ]
                },
                "trigger": {
                    "value": ""
                }
            },
            "img": "systems/pf2e/icons/actions/Reaction.webp",
            "name": "Carve in Flesh",
            "sort": 0,
            "type": "action"
        }
    ],
    "name": "Final Words",
    "token": {
        "disposition": 0,
        "height": 1,
        "img": "systems/pf2e/icons/default-icons/hazard.svg",
        "name": "1",
        "width": 1
    },
    "type": "hazard"
}
