{
    "_id": "LNgHO51cJF4HPL78",
    "data": {
        "attributes": {
            "ac": {
                "value": 10
            },
            "hardness": 0,
            "hp": {
                "details": "",
                "max": 10,
                "temp": 0,
                "value": 10
            },
            "stealth": {
                "details": "<p>(trained) to notice cracks spider-webbing across the window</p>",
                "value": 7
            }
        },
        "creatureType": "",
        "details": {
            "description": "<p>The anger trapped within a structure shatters a window, showering glass in adjacent spaces.</p>",
            "disable": "<p>@Check[type:occultism|dc:19|name:Suppress the Spiritual Energy] or @Check[type:religion|dc:19|name:Suppress the Spiritual Energy] (trained) to suppress the spiritual energy or @Check[type:diplomacy|dc:20|name:Soothe the Latent Anger] (trained) to soothe the latent anger</p>",
            "isComplex": false,
            "level": {
                "value": 1
            },
            "reset": "",
            "routine": ""
        },
        "saves": {
            "fortitude": {
                "saveDetail": "",
                "value": 0
            },
            "reflex": {
                "saveDetail": "",
                "value": 0
            },
            "will": {
                "saveDetail": "",
                "value": 0
            }
        },
        "source": {
            "value": "Pathfinder Book of the Dead"
        },
        "statusEffects": [],
        "traits": {
            "di": {
                "custom": "",
                "selected": {},
                "value": []
            },
            "dr": [],
            "dv": [],
            "rarity": "common",
            "size": {
                "value": "med"
            },
            "traits": {
                "custom": "",
                "value": []
            }
        }
    },
    "img": "systems/pf2e/icons/default-icons/hazard.svg",
    "items": [
        {
            "_id": "JNoGBCYpptNAJ1M0",
            "data": {
                "actionCategory": {
                    "value": "offensive"
                },
                "actionType": {
                    "value": "reaction"
                },
                "actions": {
                    "value": null
                },
                "deathNote": false,
                "description": {
                    "value": "<p><strong>Trigger</strong> A creature moves adjacent to the window</p>\n<p><strong>Effect</strong> The window shatters, dealing [[/r {2d6+5}[slashing]]]{2d6+5 slashing damage} to creatures within 5 feet (@Check[type:reflex|dc:17|basic:true]).</p>"
                },
                "requirements": {
                    "value": ""
                },
                "rules": [],
                "slug": null,
                "source": {
                    "value": ""
                },
                "traits": {
                    "custom": "",
                    "rarity": "common",
                    "value": []
                },
                "trigger": {
                    "value": ""
                }
            },
            "img": "systems/pf2e/icons/actions/Reaction.webp",
            "name": "Shatter",
            "sort": 0,
            "type": "action"
        }
    ],
    "name": "Shattered Window",
    "token": {
        "disposition": 0,
        "height": 1,
        "img": "systems/pf2e/icons/default-icons/hazard.svg",
        "name": "Shattered Window",
        "width": 1
    },
    "type": "hazard"
}
