{
    "_id": "DD1mlAEaXdM1pBze",
    "data": {
        "actionCategory": {
            "value": ""
        },
        "actionType": {
            "value": "passive"
        },
        "actions": {
            "value": null
        },
        "description": {
            "value": "<p><strong>[Generic]</strong><strong>][Limited Use]</strong> □□□</p>\n<p><strong>Effect</strong> With the claim settled, you've shored up relationships with some valuable allies and learned a bit about navigating Druman bureaucracy. Whenever you attempt a check to Gather Information, Decipher Writing, or Create a Forgery, you can check a box next to this boon to gain a +1 circumstance bonus on the check. If the check involves interacting with a Druman business or Druman bureaucracy, you instead gain a +3 circumstance bonus on the check.</p>"
        },
        "featType": {
            "value": "pfsboon"
        },
        "level": {
            "value": 0
        },
        "prerequisites": {
            "value": []
        },
        "rules": [],
        "source": {
            "value": ""
        },
        "traits": {
            "custom": "",
            "rarity": "common",
            "value": []
        }
    },
    "img": "systems/pf2e/icons/default-icons/mystery-man.webp",
    "name": "S1-Q07 - Amateur Adjuster",
    "type": "feat"
}
