{
    "_id": "QMPVAWtaClZtD2Ip",
    "data": {
        "attributes": {
            "ac": {
                "check": 0,
                "details": "",
                "value": 26
            },
            "collisionDC": {
                "value": 28
            },
            "collisionDamage": {
                "value": "8d10"
            },
            "hardness": 15,
            "hp": {
                "brokenThreshold": 5,
                "details": "",
                "max": 120,
                "temp": 0,
                "value": 120
            }
        },
        "details": {
            "AC": 0,
            "crew": "1 pilot, 4 crew",
            "description": "",
            "level": {
                "value": 11
            },
            "passengers": "6",
            "pilotingCheck": "Crafting (DC 30) or Piloting Lore (DC 28)",
            "price": 4200,
            "space": {
                "high": 20,
                "long": 40,
                "wide": 20
            },
            "speed": "Swim 40 feet (alchemical)"
        },
        "saves": {
            "fortitude": {
                "item": 0,
                "rank": 0,
                "saveDetail": "",
                "value": 20
            }
        },
        "source": {
            "value": "Pathfinder Lost Omens: The Grand Bazaar"
        },
        "traits": {
            "ci": [],
            "di": {
                "custom": "",
                "value": [
                    "critical-hits",
                    "object-immunities",
                    "precision"
                ]
            },
            "dr": [
                {
                    "type": "electricity",
                    "value": 10
                }
            ],
            "dv": [],
            "rarity": "uncommon",
            "size": {
                "value": "huge"
            },
            "traits": {
                "custom": "",
                "value": []
            }
        }
    },
    "img": "systems/pf2e/icons/default-icons/vehicle.svg",
    "items": [
        {
            "_id": "O5JvDSJWNWG2VtpR",
            "data": {
                "actionCategory": {
                    "value": "offensive"
                },
                "actionType": {
                    "value": "action"
                },
                "actions": {
                    "value": 2
                },
                "description": {
                    "value": "<p><strong>Frequency</strong> once per minute</p>\n<p><strong>Effect</strong> Two crew members each perform a 2-action activity on their turn to emit an electrical pulse, dealing [[/r {6d6}[electricity]]]{6d6 electricity damage} to all creatures within 10 feet of the shark diver. Crew and passengers of the shark diver are unaffected. Affected creatures must attempt a basic @Check[type:fortitude|dc:28].</p>"
                },
                "requirements": {
                    "value": ""
                },
                "rules": [],
                "slug": null,
                "source": {
                    "value": ""
                },
                "traits": {
                    "custom": "",
                    "rarity": "common",
                    "value": []
                },
                "trigger": {
                    "value": ""
                }
            },
            "img": "systems/pf2e/icons/actions/TwoActions.webp",
            "name": "Electrify",
            "sort": 0,
            "type": "action"
        },
        {
            "_id": "V86H5yeH71jmelzY",
            "data": {
                "actionCategory": {
                    "value": ""
                },
                "actionType": {
                    "value": "passive"
                },
                "actions": {
                    "value": null
                },
                "description": {
                    "value": "<p>The shark diver can travel beneath the surface of the water, carrying an air reservoir suitable to sustain 11 Medium creatures for up to 24 hours. The shark diver can safely reach depths of up to 300 feet. If broken, the shark diver loses air from its reservoir, reducing the stored air by 10 minutes per round. A broken shark diver has its maximum depth reduced by half.</p>"
                },
                "requirements": {
                    "value": ""
                },
                "rules": [],
                "slug": null,
                "source": {
                    "value": ""
                },
                "traits": {
                    "custom": "",
                    "rarity": "common",
                    "value": []
                },
                "trigger": {
                    "value": ""
                }
            },
            "img": "systems/pf2e/icons/actions/Passive.webp",
            "name": "Submersible",
            "sort": 0,
            "type": "action"
        }
    ],
    "name": "Shark Diver",
    "token": {
        "disposition": 0,
        "height": 8,
        "img": "systems/pf2e/icons/default-icons/vehicle.svg",
        "name": "Shark Diver",
        "width": 4
    },
    "type": "vehicle"
}
